{
 "textnest": [
  {},
  [
   {},
   [
    {},
    [
     {},
     [
      {},
      [
       {},
       [
        {
         "text": "Details"
        }
       ]
      ]
     ]
    ]
   ]
  ],
  [
   {},
   [
    {},
    [
     {},
     [
      {},
      [
       {}
      ]
     ],
     [
      {},
      [
       {},
       [
        {},
        [
         {},
         [
          {
           "text": "16 people responded"
          }
         ]
        ]
       ]
      ]
     ]
    ]
   ],
   [
    {}
   ]
  ],
  [
   {},
   [
    {},
    [
     {},
     [
      {},
      [
       {}
      ]
     ],
     [
      {},
      [
       {},
       [
        {},
        [
         {},
         [
          {
           "text": "Event by"
          }
         ],
         [
          {},
          [
           {
            "text": "Westport Astronomical Society",
            "href": "https://www.facebook.com/WAS.CT",
            "rect": {
             "x": 969.984375,
             "y": 43.484375,
             "width": 210.78125,
             "height": 20,
             "top": 43.484375,
             "right": 1180.765625,
             "bottom": 63.484375,
             "left": 969.984375
            }
           },
           [
            {
             "text": "Westport Astronomical Society"
            }
           ]
          ]
         ]
        ]
       ]
      ]
     ]
    ]
   ]
  ],
  [
   {},
   [
    {},
    [
     {},
     [
      {},
      [
       {}
      ]
     ],
     [
      {},
      [
       {},
       [
        {},
        [
         {},
         [
          {
           "text": "Public"
          }
         ],
         [
          {},
          [
           {},
           [
            {}
           ]
          ],
          [
           {},
           [
            {
             "text": "·"
            }
           ]
          ]
         ],
         [
          {
           "text": "Anyone on or off Facebook"
          }
         ]
        ]
       ]
      ]
     ]
    ]
   ]
  ],
  [
   {},
   [
    {},
    [
     {},
     [
      {},
      [
       {
        "text": "This lecture will be hosted as a Webinar on Zoom as well as a live stream on our YouTube channel. We encourage you to participate, ask questions and be a part of the live meeting."
       }
      ]
     ],
     [
      {},
      [
       {}
      ],
      [
       {}
      ]
     ],
     [
      {},
      [
       {
        "text": "Brett Denevi is a principal staff scientist at the Johns Hopkins University Applied Physics Laboratory. Her research focuses on the origin and evolution of planetary surfaces, particularly the history of volcanism, the effects of impact cratering, and space weathering. She has been a member of numerous NASA mission teams including four ongoing or upcoming missions to the Moon: deputy principal investigator of the Lunar Reconnaissance Orbiter Camera, co-investigator on NASA’s ShadowCam instrument on the KARI Danuri orbiter, and co-investigator on Lunar Vertex and Lunar-VISE (to land on the Moon in 2024 and 2026, respectively). Denevi served on the steering group of the recent Planetary Science and Astrobiology Decadal Survey and as Vice Chair for the Panel on the Moon and Mercury, is the science chair of NASA’s Lunar Exploration Analysis Group, and is the recipient of a NASA Early Career Fellowship, seven NASA group achievement awards, and asteroid 9026 Denevi was named in her honor."
       }
      ],
      [
       {}
      ],
      [
       {},
       [
        {
         "text": "See less"
        }
       ]
      ]
     ]
    ],
    [
     {},
     [
      {},
      [
       {
        "text": "Parties",
        "href": "https://www.facebook.com/events/discovery/?suggestion_token=%7B%22event_categories%22%3A%5B2375346995933355%5D%7D",
        "rect": {
         "x": 876.5,
         "y": 432.765625,
         "width": 55.8125,
         "height": 25,
         "top": 432.765625,
         "right": 932.3125,
         "bottom": 457.765625,
         "left": 876.5
        }
       },
       [
        {},
        [
         {},
         [
          {
           "text": "Parties"
          }
         ]
        ]
       ]
      ]
     ],
     [
      {},
      [
       {
        "text": "Online",
        "href": "https://www.facebook.com/events/discovery/?suggestion_token=%7B%22event_flags%22%3A%5B%22online%22%5D%7D",
        "rect": {
         "x": 940.3125,
         "y": 432.765625,
         "width": 54.703125,
         "height": 25,
         "top": 432.765625,
         "right": 995.015625,
         "bottom": 457.765625,
         "left": 940.3125
        }
       },
       [
        {},
        [
         {},
         [
          {
           "text": "Online"
          }
         ]
        ]
       ]
      ]
     ]
    ]
   ]
  ]
 ],
 "date": "WEDNESDAY, DECEMBER 21, 2022 AT 1 AM UTC",
 "place": {
  "desc": [
   "Caroline Sinders",
   "Invite"
  ],
  "href": "https://www.facebook.com/caroline.sinders"
 },
 "title": "WAS Pre-Winter Solstice Holiday Party With Dr. Brett Denevi, the Lunar Reconnaissance Orbiter Camera",
 "details": [
  {
   "hash": -126787689,
   "order": 0,
   "text": "Interested",
   "size": 305,
   "rect": {
    "x": 1633.765625,
    "y": -109.015625,
    "width": 16,
    "height": 16,
    "top": -109.015625,
    "right": 1649.765625,
    "bottom": -93.015625,
    "left": 1633.765625
   }
  },
  {
   "hash": -22711812,
   "order": 1,
   "text": "Going",
   "size": 305,
   "rect": {
    "x": 1758.390625,
    "y": -109.015625,
    "width": 16,
    "height": 16,
    "top": -109.015625,
    "right": 1774.390625,
    "bottom": -93.015625,
    "left": 1758.390625
   }
  },
  {
   "hash": -1200374158,
   "order": 2,
   "text": "Invite",
   "size": 305,
   "rect": {
    "x": 1855.53125,
    "y": -109.015625,
    "width": 16,
    "height": 16,
    "top": -109.015625,
    "right": 1871.53125,
    "bottom": -93.015625,
    "left": 1855.53125
   }
  },
  {
   "hash": 98752129,
   "order": 3,
   "text": "",
   "size": 307,
   "rect": {
    "x": 1953.5,
    "y": -109.015625,
    "width": 16,
    "height": 16,
    "top": -109.015625,
    "right": 1969.5,
    "bottom": -93.015625,
    "left": 1953.5
   }
  },
  {
   "hash": -1895992089,
   "order": 4,
   "text": "",
   "size": 307,
   "rect": {
    "x": 2011.5,
    "y": -109.015625,
    "width": 16,
    "height": 16,
    "top": -109.015625,
    "right": 2027.5,
    "bottom": -93.015625,
    "left": 2011.5
   }
  },
  {
   "hash": 228497327,
   "order": 5,
   "text": "16 people responded",
   "size": 307,
   "rect": {
    "x": 877.5,
    "y": 5.984375,
    "width": 20,
    "height": 20,
    "top": 5.984375,
    "right": 897.5,
    "bottom": 25.984375,
    "left": 877.5
   }
  },
  {
   "hash": 965523534,
   "order": 6,
   "text": "Event by Westport Astronomical Society",
   "size": 305,
   "rect": {
    "x": 877.5,
    "y": 43.984375,
    "width": 20,
    "height": 20,
    "top": 43.984375,
    "right": 897.5,
    "bottom": 63.984375,
    "left": 877.5
   },
   "links": [
    {
     "text": "Westport Astronomical Society",
     "href": "https://www.facebook.com/WAS.CT"
    }
   ]
  },
  {
   "hash": 1194288537,
   "order": 7,
   "text": "Public  · Anyone on or off Facebook",
   "size": 305,
   "rect": {
    "x": 877.5,
    "y": 81.984375,
    "width": 20,
    "height": 20,
    "top": 81.984375,
    "right": 897.5,
    "bottom": 101.984375,
    "left": 877.5
   }
  },
  {
   "hash": 98752129,
   "order": 8,
   "text": "Share",
   "size": 307,
   "rect": {
    "x": 1955.375,
    "y": 552,
    "width": 16,
    "height": 16,
    "top": 552,
    "right": 1971.375,
    "bottom": 568,
    "left": 1955.375
   }
  },
  {
   "hash": 98752129,
   "order": 9,
   "text": "Share",
   "size": 307,
   "rect": {
    "x": 1955.375,
    "y": 604,
    "width": 16,
    "height": 16,
    "top": 604,
    "right": 1971.375,
    "bottom": 620,
    "left": 1955.375
   }
  },
  {
   "hash": 98752129,
   "order": 10,
   "text": "Share",
   "size": 307,
   "rect": {
    "x": 1955.375,
    "y": 656,
    "width": 16,
    "height": 16,
    "top": 656,
    "right": 1971.375,
    "bottom": 672,
    "left": 1955.375
   }
  },
  {
   "hash": -1559565644,
   "order": 11,
   "text": "Ad Choices ",
   "size": 309,
   "rect": {
    "x": 1791.515625,
    "y": 720.25,
    "width": 12,
    "height": 12,
    "top": 720.25,
    "right": 1803.515625,
    "bottom": 732.25,
    "left": 1791.515625
   }
  }
 ],
 "element": "<div aria-label=\"Event Permalink\" role=\"main\" class=\"x9f619 x1n2onr6 x1ja2u2z xdt5ytf x193iq5w xeuugli x1r8uery x1iyjqo2 xs83m0k x78zum5 x1t2pt76\"><div class=\"x78zum5 xdt5ytf x1iyjqo2 x1t2pt76 xeuugli x1n2onr6 x1ja2u2z\"><div class=\"x78zum5 xdt5ytf x1t2pt76 x1n2onr6\" role=\"main\"><div><div class=\"\"><div class=\"x9f619 x1n2onr6 x1ja2u2z x78zum5 x2lah0s xl56j7k x1qjc9v5 xozqiw3 x1q0g3np x1ve1bff\"><div class=\"x9f619 x1n2onr6 x1ja2u2z x193iq5w xeuugli x1r8uery x1iyjqo2 xs83m0k x78zum5 xdt5ytf\" style=\"min-height: 80px;\"><div class=\"x9f619 x1n2onr6 x1ja2u2z x78zum5 x2lah0s xl56j7k x1qjc9v5 xozqiw3 x1q0g3np\"><div class=\"x1ey2m1c x9f619 xds687c x6ikm8r x10wlt62 x10l6tqk x17qophe x13vifvy\"><div class=\"xqtp20y x1n2onr6 xh8yej3\" style=\"left: 50%; position: absolute; top: 0px; transform: translateX(-50%); padding-top: 56.25%;\"><div class=\"x1qjc9v5 x1q0q8m5 x1qhh985 xu3j5b3 xcfux6l x26u7qi xm0m39n x13fuv20 x972fbf x1ey2m1c x9f619 x78zum5 xds687c xdt5ytf x1iyjqo2 xs83m0k x1qughib xat24cr x11i5rnm x1mh8g0r xdj266r x2lwn1j xeuugli x18d9i69 x4uap5 xkhd6sd xexx8yu x10l6tqk x17qophe x13vifvy x1ja2u2z\"><img alt=\"\" class=\"x1ey2m1c x9f619 xds687c x5yr21d x10l6tqk x17qophe x13vifvy xh8yej3\" referrerpolicy=\"origin-when-cross-origin\" src=\"https://scontent.flis12-2.fna.fbcdn.net/v/t39.30808-6/315955197_552461100222938_9213094941456685721_n.jpg?stp=dst-jpg_fb50_s320x320&amp;_nc_cat=111&amp;ccb=1-7&amp;_nc_sid=340051&amp;_nc_ohc=RA7rbkdwXeEAX_JLuv9&amp;_nc_ht=scontent.flis12-2.fna&amp;oh=00_AfCFx4-Ge3GD8r0-YaYqglrZ5pGJbKWDICReSguYE-tXfQ&amp;oe=6386C2E0\"></div></div><div class=\" xyuz3pd x1ey2m1c x9f619 xds687c x10l6tqk x17qophe x13vifvy\"></div></div><div class=\"x9f619 x1n2onr6 x1ja2u2z xeuugli x1r8uery x1iyjqo2 xs83m0k x6s0dn4 x78zum5 xdt5ytf xl56j7k x1uyial6 x1rr25im x1xh8ygx\"><div class=\"x6ikm8r x10wlt62 x1n2onr6 xh8yej3 xric181 x30kzoy x9jhf4c x1nxjzwp xd7htx2\" style=\"border-radius: 0px 0px max(0px, min(8px, ((100vw - 4px) - 100%) * 9999)) max(0px, min(8px, ((100vw - 4px) - 100%) * 9999)) / 0px 0px 8px 8px;\"><a aria-label=\"May be an image of 1 person and text that says 'WESTPORT WAS Lunar Reconnaissance Orbiter Presented by Dr. Brett W. Denevi, Johns Hopkins University Applied Physics a ÛS Virtual Lecture December 20, 2022 8:00pm'\" class=\"x1i10hfl xjbqb8w x6umtig x1b1mbwd xaqea5y xav7gou x9f619 x1ypdohk xe8uvvx xdj266r x11i5rnm xat24cr x1mh8g0r xexx8yu x4uap5 x18d9i69 xkhd6sd x16tdsg8 x1hl2dhg xggy1nq x1o1ewxj x3x9cwd x1e5q0jg x13rtm0m x1n2onr6 x87ps6o x1lku1pv x1a2a7pz x1lliihq\" href=\"https://www.facebook.com/photo/?fbid=552461103556271&amp;set=gm.654546362782251\" role=\"link\" tabindex=\"0\"><div class=\"xqtp20y x1n2onr6 xh8yej3 x6ikm8r x10wlt62\" style=\"padding-top: 52.6316%;\"><div class=\"x1qjc9v5 x1q0q8m5 x1qhh985 xu3j5b3 xcfux6l x26u7qi xm0m39n x13fuv20 x972fbf x1ey2m1c x9f619 x78zum5 xds687c xdt5ytf x1iyjqo2 xs83m0k x1qughib xat24cr x11i5rnm x1mh8g0r xdj266r x2lwn1j xeuugli x18d9i69 x4uap5 xkhd6sd xexx8yu x10l6tqk x17qophe x13vifvy x1ja2u2z\"><div class=\"xqtp20y x1n2onr6 xh8yej3 x6ikm8r x10wlt62\" style=\"left: 50%; position: absolute; top: 48.6395%; transform: translate(-50%, -48.6395%); padding-top: 56.25%;\"><div class=\"x1qjc9v5 x1q0q8m5 x1qhh985 xu3j5b3 xcfux6l x26u7qi xm0m39n x13fuv20 x972fbf x1ey2m1c x9f619 x78zum5 xds687c xdt5ytf x1iyjqo2 xs83m0k x1qughib xat24cr x11i5rnm x1mh8g0r xdj266r x2lwn1j xeuugli x18d9i69 x4uap5 xkhd6sd xexx8yu x10l6tqk x17qophe x13vifvy x1ja2u2z\"><img data-imgperflogname=\"profileCoverPhoto\" alt=\"\" class=\"x1ey2m1c x9f619 xds687c x5yr21d x10l6tqk x17qophe x13vifvy xh8yej3\" referrerpolicy=\"origin-when-cross-origin\" src=\"https://scontent.flis12-2.fna.fbcdn.net/v/t39.30808-6/315955197_552461100222938_9213094941456685721_n.jpg?stp=dst-jpg_p180x540&amp;_nc_cat=111&amp;ccb=1-7&amp;_nc_sid=340051&amp;_nc_ohc=RA7rbkdwXeEAX_JLuv9&amp;_nc_ht=scontent.flis12-2.fna&amp;oh=00_AfA3LfrYK5zEyWdFLdk847aM_vr3ZT7TX3qGPixzSyXL_Q&amp;oe=6386C2E0\"></div></div></div></div></a></div></div></div></div></div><div class=\"x9f619 x1n2onr6 x1ja2u2z x78zum5 x2lah0s xl56j7k x1qjc9v5 xozqiw3 x1q0g3np x1l90r2v x1ve1bff\"><div class=\"x9f619 x1n2onr6 x1ja2u2z x78zum5 xdt5ytf xeuugli x1r8uery x1iyjqo2 xs83m0k x1swvt13 x1pi30zi xqdwrps x16i7wwg x1y5dvz6\"><div class=\"xuk3077 xqcrz7y x78zum5 xqtp20y xw7yly9\"><div class=\"x9f619 x1n2onr6 x1ja2u2z x78zum5 x2lah0s x1qughib x1qjc9v5 xozqiw3 x1q0g3np xn6708d x1ye3gou xyamay9 xykv574 xbmpl8g x4cne27 xifccgj\"><div class=\"x9f619 x1n2onr6 x1ja2u2z x78zum5 xdt5ytf x2lah0s x193iq5w xeuugli xsyo7zv x16hj40l x10b6aqq x1yrsyyn\"><div class=\"x1qjc9v5 x1jx94hy x1lq5wgf xgqcy7u x30kzoy x9jhf4c xetbsjj x78zum5 xdt5ytf xwzfr38 x6ikm8r x10wlt62 x1dmp6jm\"><div class=\"x1py5hnd x1qx5ct2\"></div><div class=\"xzsf02u x78zum5 x13wtedm x1s688f xng8ra xl56j7k\">21</div></div></div></div></div><div class=\"xqcrz7y xh8yej3\"><div class=\"x9f619 x1n2onr6 x1ja2u2z x78zum5 x2lah0s x1qughib xuk3077 xozqiw3 x1q0g3np xn6708d x1ye3gou xyamay9 x1n0m28w xp7jhwk x1wsgfga x9otpla\"><div class=\"x9f619 x1n2onr6 x1ja2u2z x78zum5 xdt5ytf x193iq5w xeuugli x1r8uery x1iyjqo2 xs83m0k x1sxyh0 xurb0ha xwib8y2 x1y1aw1k\"><div><div class=\"x78zum5 xdt5ytf x1wsgfga x9otpla\"><div class=\"x1e56ztr x1xmf6yo\"><span class=\"x193iq5w xeuugli x13faqbe x1vvkbs x1xmvt09 x1lliihq x1s928wv xhkezso x1gmr53x x1cpjm7i x1fgarty x1943h6x xudqn12 x3x7a5m x6prxxf xvq8zen x1xlr1w8 x1a1m0xk x1yc453h\" dir=\"auto\">WEDNESDAY, DECEMBER 21, 2022 AT 1 AM UTC</span></div><div class=\"x1e56ztr x1xmf6yo\"><h2 class=\"x1heor9g x1qlqyl8 x1pd3egz x1a2a7pz x193iq5w xeuugli\" dir=\"auto\"><span class=\"x193iq5w xeuugli x13faqbe x1vvkbs x1xmvt09 x1lliihq x1s928wv xhkezso x1gmr53x x1cpjm7i x1fgarty x1943h6x x1ill7wo x1x48ksl x1q74xe4 xyesn5m x1xlr1w8 xzsf02u x1yc453h\" dir=\"auto\" style=\"\"><span class=\"x1lliihq x6ikm8r x10wlt62 x1n2onr6 xg8j3zb\" style=\"-webkit-box-orient: vertical; -webkit-line-clamp: 2; display: -webkit-box;\"><span class=\"\">WAS Pre-Winter Solstice Holiday Party With Dr. Brett Denevi, the Lunar Reconnaissance Orbiter Camera</span></span></span></h2></div><div class=\"x1e56ztr x1xmf6yo\"><span class=\"x193iq5w xeuugli x13faqbe x1vvkbs x1xmvt09 x1lliihq x1s928wv xhkezso x1gmr53x x1cpjm7i x1fgarty x1943h6x xudqn12 x3x7a5m x1lkfr7t x1lbecb7 xo1l8bm xi81zsa x1yc453h\" dir=\"auto\"><span class=\"x1lliihq x6ikm8r x10wlt62 x1n2onr6 xlyipyv xuxw1ft x1j85h84\">Online event</span></span></div></div></div></div><div class=\"x9f619 x1n2onr6 x1ja2u2z x78zum5 xdt5ytf x2lah0s x193iq5w xeuugli x1sxyh0 xurb0ha xwib8y2 x1y1aw1k\"><div class=\"x12rz0ws\"><div class=\"x9f619 x1n2onr6 x1ja2u2z x78zum5 x2lah0s x1qughib x1qjc9v5 xozqiw3 x1q0g3np xyamay9 xykv574 xbmpl8g x4cne27 xifccgj\"><div class=\"x9f619 x1n2onr6 x1ja2u2z x78zum5 xdt5ytf x2lah0s x193iq5w xeuugli xsyo7zv x16hj40l x10b6aqq x1yrsyyn\"><a aria-disabled=\"true\" aria-label=\"Join Event\" class=\"x1i10hfl xjbqb8w x6umtig x1b1mbwd xaqea5y xav7gou xe8uvvx xdj266r x11i5rnm xat24cr x1mh8g0r xexx8yu x4uap5 x18d9i69 xkhd6sd x16tdsg8 x1hl2dhg xggy1nq x1h6gzvc x1o1ewxj x3x9cwd x1e5q0jg x13rtm0m x87ps6o x1lku1pv x1a2a7pz x9f619 x3nfvp2 xdt5ytf xl56j7k x1n2onr6 xh8yej3\" role=\"link\" tabindex=\"-1\"><div class=\"x1n2onr6 x1ja2u2z x78zum5 x2lah0s xl56j7k x6s0dn4 xozqiw3 x1q0g3np xi112ho x17zwfj4 x585lrc x1403ito x972fbf xcfux6l x1qhh985 xm0m39n x9f619 xn6708d x1ye3gou xwcfey6 x1r1pt67\"><div class=\"x6s0dn4 x78zum5 xl56j7k x1608yet xljgi0e x1e0frkt\"><div class=\"x9f619 x1n2onr6 x1ja2u2z x193iq5w xeuugli x6s0dn4 x78zum5 x2lah0s x1fbi1t2 xl8fo4v\"><span class=\"x193iq5w xeuugli x13faqbe x1vvkbs x1xmvt09 x1lliihq x1s928wv xhkezso x1gmr53x x1cpjm7i x1fgarty x1943h6x xudqn12 x3x7a5m x6prxxf xvq8zen x1s688f x1x80s81\" dir=\"auto\"><span class=\"x1lliihq x6ikm8r x10wlt62 x1n2onr6 xlyipyv xuxw1ft\">Join Event</span></span></div></div><div class=\"x1o1ewxj x3x9cwd x1e5q0jg x13rtm0m x1ey2m1c xds687c xg01cxk x47corl x10l6tqk x17qophe x13vifvy x1ebt8du x19991ni x1dhq9h\" data-visualcompletion=\"ignore\"></div></div></a></div></div></div></div></div></div></div></div><div class=\"x9f619 x1n2onr6 x1ja2u2z x78zum5 x2lah0s xl56j7k x1qjc9v5 xozqiw3 x1q0g3np x1ve1bff\"><div class=\"x9f619 x1n2onr6 x1ja2u2z x78zum5 xdt5ytf xeuugli x1r8uery x1iyjqo2 xs83m0k x1swvt13 x1pi30zi xqdwrps x16i7wwg x1y5dvz6\"><div class=\" x1n2xptk\"></div></div></div></div><div class=\"x9f619 x1n2onr6 x1ja2u2z\"></div><div class=\"x9f619 x1ja2u2z x1xzczws x7wzq59\" style=\"top: 56px; z-index: 1;\"><div class=\"x9f619 x1n2onr6 x1ja2u2z x78zum5 xl56j7k x1qjc9v5 xozqiw3 x1q0g3np x1ve1bff xvo6coq x2lah0s\"><div class=\"x9f619 x1n2onr6 x1ja2u2z x78zum5 xdt5ytf xeuugli x1r8uery x1iyjqo2 xs83m0k x1swvt13 x1pi30zi xqdwrps x16i7wwg x1y5dvz6\"><div class=\"x9f619 x1n2onr6 x1ja2u2z x78zum5 x2lah0s x1qughib x6s0dn4 xozqiw3 x1q0g3np\"><div class=\"x9f619 x1n2onr6 x1ja2u2z x78zum5 xdt5ytf x193iq5w xeuugli x1r8uery x1iyjqo2 xs83m0k\"><div class=\"x9f619 x1ja2u2z x6ikm8r x10wlt62 x1n2onr6\"><div class=\"x9f619 x1n2onr6 x1ja2u2z xhb22t3 x11xpdln x1jrttnq x105ttfm\"><div class=\"x9f619 x1n2onr6 x1ja2u2z x78zum5 x2lah0s x1qughib x1qjc9v5 xozqiw3 x1q0g3np x879a55 xg01cxk xlshs6z x1bvr7z4 x1jl3cmp xu06nn8\"><div class=\"x9f619 x1n2onr6 x1ja2u2z x78zum5 xdt5ytf x193iq5w xeuugli x1r8uery x1iyjqo2 xs83m0k\"><div class=\"x7s6sir\"><div class=\"x4k7w5x x1h91t0o x1beo9mf xaigb6o x12ejxvf x3igimt xarpa2k xedcshv x1lytzrv x1t2pt76 x7ja8zs x1n2onr6 x1qrby5j x1jfb8zj\"><div class=\"xng8ra x6ikm8r x10wlt62 x1n2onr6 xh8yej3 x1ja2u2z x1a2a7pz\" role=\"tablist\" data-visualcompletion=\"ignore-dynamic\"><div class=\"x14ju556 x1n2onr6\"><div class=\"x6ikm8r x10wlt62 xlshs6z\"><div class=\"x6s0dn4 x9f619 x2lah0s x1hshjfz x1n2onr6 x3nfvp2 xrbpyxo x16dsc37 xng8ra x1pi30zi x1swvt13\"><span class=\"x193iq5w xeuugli x13faqbe x1vvkbs x1xmvt09 x1lliihq x1s928wv xhkezso x1gmr53x x1cpjm7i x1fgarty x1943h6x xudqn12 x3x7a5m x6prxxf xvq8zen x1s688f x1qq9wsj\" dir=\"auto\">About</span><div class=\" x11t77rh x146dn1l x1ey2m1c xds687c xuoj239 x10l6tqk x17qophe\" style=\"background-color: var(--accent);\"></div></div><div class=\"x6s0dn4 x9f619 x2lah0s x1hshjfz x1n2onr6 x3nfvp2 xrbpyxo x16dsc37 xng8ra x1pi30zi x1swvt13\"><span class=\"x193iq5w xeuugli x13faqbe x1vvkbs x1xmvt09 x1lliihq x1s928wv xhkezso x1gmr53x x1cpjm7i x1fgarty x1943h6x xudqn12 x3x7a5m x6prxxf xvq8zen x1s688f xi81zsa\" dir=\"auto\">Discussion</span><div class=\"\"></div></div></div><div class=\"x1ey2m1c x9f619 xds687c x10l6tqk x17qophe x13vifvy\"><div class=\"x1rg5ohu x1n2onr6 x16dsc37 x192njpj x1x4j4od x1jquxbb x2lwn1j x6ikm8r x10wlt62\"><div aria-disabled=\"true\" aria-haspopup=\"menu\" aria-hidden=\"true\" aria-selected=\"true\" class=\"x1i10hfl x6umtig x1b1mbwd xaqea5y xav7gou xe8uvvx xggy1nq x1o1ewxj x3x9cwd x1e5q0jg x13rtm0m x87ps6o x1lku1pv x1a2a7pz xjyslct xjbqb8w x18o3ruo x13fuv20 xu3j5b3 x1q0q8m5 x26u7qi x972fbf xcfux6l x1qhh985 xm0m39n x9f619 x1heor9g x1ypdohk x78zum5 xdj266r x11i5rnm xat24cr x1mh8g0r xexx8yu x4uap5 x18d9i69 xkhd6sd x16tdsg8 x1hl2dhg x1vjfegm xng8ra x10l6tqk x17qophe x13vifvy\" role=\"tab\"><div class=\"x6s0dn4 x9f619 x78zum5 x2lah0s x1hshjfz x1n2onr6 xng8ra x1pi30zi x1swvt13\"><span class=\"x193iq5w xeuugli x13faqbe x1vvkbs x1xmvt09 x1lliihq x1s928wv xhkezso x1gmr53x x1cpjm7i x1fgarty x1943h6x xudqn12 x3x7a5m x6prxxf xvq8zen x1s688f x1qq9wsj\" dir=\"auto\">More</span><div class=\"x14ju556 xsgj6o6\"><svg fill=\"currentColor\" viewBox=\"0 0 20 20\" width=\"1em\" height=\"1em\" class=\"x1lliihq x1k90msu x2h7rmj x1qfuztq x1qq9wsj xlup9mm x1kky2od\"><path d=\"M10 14a1 1 0 0 1-.755-.349L5.329 9.182a1.367 1.367 0 0 1-.205-1.46A1.184 1.184 0 0 1 6.2 7h7.6a1.18 1.18 0 0 1 1.074.721 1.357 1.357 0 0 1-.2 1.457l-3.918 4.473A1 1 0 0 1 10 14z\"></path></svg></div><div class=\" x11t77rh x146dn1l x1ey2m1c xds687c xuoj239 x10l6tqk x17qophe\" style=\"background-color: var(--accent);\"></div></div></div></div><a aria-disabled=\"true\" aria-hidden=\"true\" aria-selected=\"true\" class=\"x1i10hfl x6umtig x1b1mbwd xaqea5y xav7gou xe8uvvx xggy1nq x1o1ewxj x3x9cwd x1e5q0jg x13rtm0m x87ps6o x1lku1pv x1a2a7pz xjyslct xjbqb8w x18o3ruo x13fuv20 xu3j5b3 x1q0q8m5 x26u7qi x972fbf xcfux6l x1qhh985 xm0m39n x9f619 x1heor9g x1ypdohk xdj266r x11i5rnm xat24cr x1mh8g0r xexx8yu x4uap5 x18d9i69 xkhd6sd x1n2onr6 x16tdsg8 x1hl2dhg x1vjfegm x3nfvp2 xrbpyxo xng8ra x16dsc37\" role=\"tab\" tabindex=\"-1\"><div class=\"x6s0dn4 x9f619 x78zum5 x2lah0s x1hshjfz x1n2onr6 xng8ra x1pi30zi x1swvt13\"><span class=\"x193iq5w xeuugli x13faqbe x1vvkbs x1xmvt09 x1lliihq x1s928wv xhkezso x1gmr53x x1cpjm7i x1fgarty x1943h6x xudqn12 x3x7a5m x6prxxf xvq8zen x1s688f x1qq9wsj\" dir=\"auto\">About</span><div class=\" x11t77rh x146dn1l x1ey2m1c xds687c xuoj239 x10l6tqk x17qophe\" style=\"background-color: var(--accent);\"></div></div></a><a aria-disabled=\"true\" aria-hidden=\"true\" aria-selected=\"false\" class=\"x1i10hfl x6umtig x1b1mbwd xaqea5y xav7gou xe8uvvx xggy1nq x1o1ewxj x3x9cwd x1e5q0jg x13rtm0m x87ps6o x1lku1pv x1a2a7pz xjyslct xjbqb8w x18o3ruo x13fuv20 xu3j5b3 x1q0q8m5 x26u7qi x972fbf xcfux6l x1qhh985 xm0m39n x9f619 x1heor9g x1ypdohk xdj266r x11i5rnm xat24cr x1mh8g0r xexx8yu x4uap5 x18d9i69 xkhd6sd x1n2onr6 x16tdsg8 x1hl2dhg x1vjfegm x3nfvp2 xrbpyxo xng8ra x16dsc37\" role=\"tab\" tabindex=\"-1\"><div class=\"x6s0dn4 x9f619 x78zum5 x2lah0s x1hshjfz x1n2onr6 xng8ra x1pi30zi x1swvt13\"><span class=\"x193iq5w xeuugli x13faqbe x1vvkbs x1xmvt09 x1lliihq x1s928wv xhkezso x1gmr53x x1cpjm7i x1fgarty x1943h6x xudqn12 x3x7a5m x6prxxf xvq8zen x1s688f xi81zsa\" dir=\"auto\">Discussion</span><div class=\"\"></div></div><div class=\"x1o1ewxj x3x9cwd x1e5q0jg x13rtm0m x1ey2m1c xds687c xg01cxk x47corl x10l6tqk x17qophe x13vifvy x1ebt8du x19991ni x1dhq9h\" data-visualcompletion=\"ignore\"></div></a></div></div></div></div></div></div></div><div class=\"x9f619 x1ja2u2z x78zum5 x2lah0s x1qughib x1qjc9v5 xozqiw3 x1q0g3np x5yr21d x10l6tqk xdsb8wn xh8yej3 x1hc1fzr xnpuxes x2r5gy4 x1jl3cmp xu06nn8\"><div class=\"x9f619 x1n2onr6 x1ja2u2z x78zum5 xdt5ytf x2lah0s x193iq5w xeuugli xamitd3\"><div class=\"x9f619 x1n2onr6 x1ja2u2z x78zum5 x2lah0s x1nhvcw1 x1qjc9v5 xozqiw3 x1q0g3np\"><div class=\"x9f619 x1n2onr6 x1ja2u2z x78zum5 xdt5ytf x2lah0s x193iq5w xeuugli\"><div data-visualcompletion=\"ignore-dynamic\" style=\"padding-left: 8px; padding-right: 8px;\"><a class=\"x1i10hfl x1qjc9v5 xjbqb8w xjqpnuy xa49m3k xqeqjp1 x2hbi6w x13fuv20 xu3j5b3 x1q0q8m5 x26u7qi x972fbf xcfux6l x1qhh985 xm0m39n x9f619 x1ypdohk xdl72j9 x2lah0s xe8uvvx xdj266r x11i5rnm xat24cr x1mh8g0r x2lwn1j xeuugli xexx8yu x4uap5 x18d9i69 xkhd6sd x1n2onr6 x16tdsg8 x1hl2dhg xggy1nq x1ja2u2z x1t137rt x1q0g3np x87ps6o x1lku1pv x1a2a7pz x1lq5wgf xgqcy7u x30kzoy x9jhf4c x1lliihq\" href=\"https://www.facebook.com/events/654546319448922/\" role=\"link\" tabindex=\"0\"><div class=\"x6s0dn4 x1q0q8m5 x1qhh985 xu3j5b3 xcfux6l x26u7qi xm0m39n x13fuv20 x972fbf x9f619 x78zum5 x1q0g3np x1iyjqo2 xs83m0k x1qughib xat24cr x11i5rnm x1mh8g0r xdj266r xeuugli x18d9i69 x1sxyh0 xurb0ha xexx8yu x1n2onr6 x1ja2u2z x1gg8mnh\"><div class=\"x78zum5 xdt5ytf xq8finb x1xmf6yo x1e56ztr x1n2onr6 xamitd3\"><div class=\"x1rg5ohu x1n2onr6 x3ajldb x1ja2u2z\"><svg aria-hidden=\"true\" class=\"x3ajldb\" data-visualcompletion=\"ignore-dynamic\" role=\"none\" style=\"height: 40px; width: 40px;\"><mask id=\"jsc_c_95\"><rect cy=\"20\" fill=\"white\" height=\"40\" rx=\"8\" ry=\"8\" width=\"40\" x=\"0\" y=\"0\"></rect></mask><g mask=\"url(#jsc_c_95)\"><image x=\"0\" y=\"0\" height=\"100%\" preserveAspectRatio=\"xMidYMid slice\" width=\"100%\" xlink:href=\"https://scontent.flis12-2.fna.fbcdn.net/v/t39.30808-6/315955197_552461100222938_9213094941456685721_n.jpg?stp=c19.0.50.50a_cp0_dst-jpg_p50x50&amp;_nc_cat=111&amp;ccb=1-7&amp;_nc_sid=c39e3b&amp;_nc_ohc=RA7rbkdwXeEAX_JLuv9&amp;_nc_ht=scontent.flis12-2.fna&amp;oh=00_AfB_FHPxJpkpSqkBQjIZCD4F7861hdsVbPik0nU_y9qImw&amp;oe=6386C2E0\" style=\"height: 40px; width: 40px;\"></image><rect class=\"x1pwv2dq xvlca1e xbh8q5q\" cy=\"20\" fill=\"white\" height=\"40\" rx=\"8\" ry=\"8\" width=\"40\" x=\"0\" y=\"0\"></rect></g></svg></div></div><div class=\"x6s0dn4 xkh2ocl x1q0q8m5 x1qhh985 xu3j5b3 xcfux6l x26u7qi xm0m39n x13fuv20 x972fbf x9f619 x78zum5 x1q0g3np x1iyjqo2 xs83m0k x1qughib xat24cr x11i5rnm x1mh8g0r xdj266r x2lwn1j xeuugli x18d9i69 x4uap5 xkhd6sd xexx8yu x1n2onr6 x1ja2u2z\"><div class=\"x1q0q8m5 x1qhh985 xu3j5b3 xcfux6l x26u7qi xm0m39n x13fuv20 x972fbf x9f619 x78zum5 x1r8uery x1iyjqo2 xs83m0k x1qughib x11i5rnm x1mh8g0r x2lwn1j xeuugli x4uap5 xkhd6sd x1n2onr6 x1ja2u2z x1qjc9v5 xdt5ytf xat24cr xdj266r xz9dl7a xsag5q8\"><div class=\"\"><div class=\"x78zum5 xdt5ytf xz62fqu x16ldp7u\"><div class=\"xu06os2 x1ok221b\"><span class=\"x193iq5w xeuugli x13faqbe x1vvkbs x1xmvt09 x1lliihq x1s928wv xhkezso x1gmr53x x1cpjm7i x1fgarty x1943h6x xudqn12 x3x7a5m x1lkfr7t x1lbecb7 xk50ysn xzsf02u x1yc453h\" dir=\"auto\"><span class=\"x1lliihq x6ikm8r x10wlt62 x1n2onr6 xlyipyv xuxw1ft x1j85h84\">WAS Pre-Winter Solstice Holiday Party With Dr. Brett Denevi, the Lunar Reconnaissance Orbiter Camera</span></span></div></div></div></div></div></div><div class=\"x1o1ewxj x3x9cwd x1e5q0jg x13rtm0m x1ey2m1c xds687c xg01cxk x47corl x10l6tqk x17qophe x13vifvy x1ebt8du x19991ni x1dhq9h\" data-visualcompletion=\"ignore\"></div></a></div></div></div></div></div></div></div></div><div class=\"x9f619 x1n2onr6 x1ja2u2z x78zum5 xdt5ytf x2lah0s x193iq5w xeuugli xamitd3\"><div class=\"x6s0dn4 x78zum5 xng8ra\"><div class=\"x1i64zmx\"><div class=\"x78zum5\"><div class=\"xh8yej3\"><div aria-label=\"Interested\" class=\"x1i10hfl xjbqb8w x6umtig x1b1mbwd xaqea5y xav7gou x1ypdohk xe8uvvx xdj266r x11i5rnm xat24cr x1mh8g0r xexx8yu x4uap5 x18d9i69 xkhd6sd x16tdsg8 x1hl2dhg xggy1nq x1o1ewxj x3x9cwd x1e5q0jg x13rtm0m x87ps6o x1lku1pv x1a2a7pz x9f619 x3nfvp2 xdt5ytf xl56j7k x1n2onr6 xh8yej3\" role=\"button\" tabindex=\"0\"><div class=\"x1n2onr6 x1ja2u2z x78zum5 x2lah0s xl56j7k x6s0dn4 xozqiw3 x1q0g3np xi112ho x17zwfj4 x585lrc x1403ito x972fbf xcfux6l x1qhh985 xm0m39n x9f619 xn6708d x1ye3gou x1qhmfi1 x1r1pt67\"><div class=\"x6s0dn4 x78zum5 xl56j7k x1608yet xljgi0e x1e0frkt\" style=\"border: 1px solid red;\"><div class=\"x9f619 x1n2onr6 x1ja2u2z x193iq5w xeuugli x6s0dn4 x78zum5 x2lah0s x1fbi1t2 xl8fo4v\"><i data-visualcompletion=\"css-img\" class=\"x1b0d499 xep6ejk\" style=\"background-image: url(&quot;https://static.xx.fbcdn.net/rsrc.php/v3/y0/r/QSl-wdUq4dm.png&quot;); background-position: 0px -611px; background-size: auto; width: 16px; height: 16px; background-repeat: no-repeat; display: inline-block;\"></i></div><div class=\"x9f619 x1n2onr6 x1ja2u2z x193iq5w xeuugli x6s0dn4 x78zum5 x2lah0s x1fbi1t2 xl8fo4v\"><span class=\"x193iq5w xeuugli x13faqbe x1vvkbs x1xmvt09 x1lliihq x1s928wv xhkezso x1gmr53x x1cpjm7i x1fgarty x1943h6x xudqn12 x3x7a5m x6prxxf xvq8zen x1s688f x1dem4cn\" dir=\"auto\"><span class=\"x1lliihq x6ikm8r x10wlt62 x1n2onr6 xlyipyv xuxw1ft\">Interested</span></span></div></div><div class=\"x1o1ewxj x3x9cwd x1e5q0jg x13rtm0m x1ey2m1c xds687c xg01cxk x47corl x10l6tqk x17qophe x13vifvy x1ebt8du x19991ni x1dhq9h\" data-visualcompletion=\"ignore\"></div></div></div></div><div class=\"xurb0ha\"></div><div class=\"xh8yej3\"><div aria-label=\"Going\" class=\"x1i10hfl xjbqb8w x6umtig x1b1mbwd xaqea5y xav7gou x1ypdohk xe8uvvx xdj266r x11i5rnm xat24cr x1mh8g0r xexx8yu x4uap5 x18d9i69 xkhd6sd x16tdsg8 x1hl2dhg xggy1nq x1o1ewxj x3x9cwd x1e5q0jg x13rtm0m x87ps6o x1lku1pv x1a2a7pz x9f619 x3nfvp2 xdt5ytf xl56j7k x1n2onr6 xh8yej3\" role=\"button\" tabindex=\"0\"><div class=\"x1n2onr6 x1ja2u2z x78zum5 x2lah0s xl56j7k x6s0dn4 xozqiw3 x1q0g3np xi112ho x17zwfj4 x585lrc x1403ito x972fbf xcfux6l x1qhh985 xm0m39n x9f619 xn6708d x1ye3gou x1qhmfi1 x1r1pt67\"><div class=\"x6s0dn4 x78zum5 xl56j7k x1608yet xljgi0e x1e0frkt\" style=\"border: 1px solid red;\"><div class=\"x9f619 x1n2onr6 x1ja2u2z x193iq5w xeuugli x6s0dn4 x78zum5 x2lah0s x1fbi1t2 xl8fo4v\"><i data-visualcompletion=\"css-img\" class=\"x1b0d499 xep6ejk\" style=\"background-image: url(&quot;https://static.xx.fbcdn.net/rsrc.php/v3/y0/r/QSl-wdUq4dm.png&quot;); background-position: 0px -407px; background-size: auto; width: 16px; height: 16px; background-repeat: no-repeat; display: inline-block;\"></i></div><div class=\"x9f619 x1n2onr6 x1ja2u2z x193iq5w xeuugli x6s0dn4 x78zum5 x2lah0s x1fbi1t2 xl8fo4v\"><span class=\"x193iq5w xeuugli x13faqbe x1vvkbs x1xmvt09 x1lliihq x1s928wv xhkezso x1gmr53x x1cpjm7i x1fgarty x1943h6x xudqn12 x3x7a5m x6prxxf xvq8zen x1s688f x1dem4cn\" dir=\"auto\"><span class=\"x1lliihq x6ikm8r x10wlt62 x1n2onr6 xlyipyv xuxw1ft\">Going</span></span></div></div><div class=\"x1o1ewxj x3x9cwd x1e5q0jg x13rtm0m x1ey2m1c xds687c xg01cxk x47corl x10l6tqk x17qophe x13vifvy x1ebt8du x19991ni x1dhq9h\" data-visualcompletion=\"ignore\"></div></div></div></div></div></div><div class=\"x1i64zmx\"><div aria-label=\"Invite\" class=\"x1i10hfl xjbqb8w x6umtig x1b1mbwd xaqea5y xav7gou x1ypdohk xe8uvvx xdj266r x11i5rnm xat24cr x1mh8g0r xexx8yu x4uap5 x18d9i69 xkhd6sd x16tdsg8 x1hl2dhg xggy1nq x1o1ewxj x3x9cwd x1e5q0jg x13rtm0m x87ps6o x1lku1pv x1a2a7pz x9f619 x3nfvp2 xdt5ytf xl56j7k x1n2onr6 xh8yej3\" role=\"button\" tabindex=\"0\"><div class=\"x1n2onr6 x1ja2u2z x78zum5 x2lah0s xl56j7k x6s0dn4 xozqiw3 x1q0g3np xi112ho x17zwfj4 x585lrc x1403ito x972fbf xcfux6l x1qhh985 xm0m39n x9f619 xn6708d x1ye3gou x1qhmfi1 x1r1pt67\"><div class=\"x6s0dn4 x78zum5 xl56j7k x1608yet xljgi0e x1e0frkt\" style=\"border: 1px solid red;\"><div class=\"x9f619 x1n2onr6 x1ja2u2z x193iq5w xeuugli x6s0dn4 x78zum5 x2lah0s x1fbi1t2 xl8fo4v\"><i data-visualcompletion=\"css-img\" class=\"x1b0d499 xep6ejk\" style=\"background-image: url(&quot;https://static.xx.fbcdn.net/rsrc.php/v3/y0/r/QSl-wdUq4dm.png&quot;); background-position: 0px -441px; background-size: auto; width: 16px; height: 16px; background-repeat: no-repeat; display: inline-block;\"></i></div><div class=\"x9f619 x1n2onr6 x1ja2u2z x193iq5w xeuugli x6s0dn4 x78zum5 x2lah0s x1fbi1t2 xl8fo4v\"><span class=\"x193iq5w xeuugli x13faqbe x1vvkbs x1xmvt09 x1lliihq x1s928wv xhkezso x1gmr53x x1cpjm7i x1fgarty x1943h6x xudqn12 x3x7a5m x6prxxf xvq8zen x1s688f x1dem4cn\" dir=\"auto\"><span class=\"x1lliihq x6ikm8r x10wlt62 x1n2onr6 xlyipyv xuxw1ft\">Invite</span></span></div></div><div class=\"x1o1ewxj x3x9cwd x1e5q0jg x13rtm0m x1ey2m1c xds687c xg01cxk x47corl x10l6tqk x17qophe x13vifvy x1ebt8du x19991ni x1dhq9h\" data-visualcompletion=\"ignore\"></div></div></div></div><div class=\"x1i64zmx\"><div aria-label=\"Share\" class=\"x1i10hfl xjbqb8w x6umtig x1b1mbwd xaqea5y xav7gou x1ypdohk xe8uvvx xdj266r x11i5rnm xat24cr x1mh8g0r xexx8yu x4uap5 x18d9i69 xkhd6sd x16tdsg8 x1hl2dhg xggy1nq x1o1ewxj x3x9cwd x1e5q0jg x13rtm0m x87ps6o x1lku1pv x1a2a7pz x9f619 x3nfvp2 xdt5ytf xl56j7k x1n2onr6 xh8yej3\" role=\"button\" tabindex=\"0\"><div class=\"x1n2onr6 x1ja2u2z x78zum5 x2lah0s xl56j7k x6s0dn4 xozqiw3 x1q0g3np xi112ho x17zwfj4 x585lrc x1403ito x972fbf xcfux6l x1qhh985 xm0m39n x9f619 x1qhmfi1 x1r1pt67 x1pi30zi x1swvt13\"><div class=\"x6s0dn4 x78zum5 xl56j7k x1608yet xljgi0e x1e0frkt\" style=\"border: 1px solid red;\"><div class=\"x9f619 x1n2onr6 x1ja2u2z x193iq5w xeuugli x6s0dn4 x78zum5 x2lah0s x1fbi1t2 xl8fo4v\"><i data-visualcompletion=\"css-img\" class=\"x1b0d499 xep6ejk\" style=\"background-image: url(&quot;https://static.xx.fbcdn.net/rsrc.php/v3/yz/r/t4SObw3ynhJ.png&quot;); background-position: -17px -320px; background-size: auto; width: 16px; height: 16px; background-repeat: no-repeat; display: inline-block;\"></i></div></div><div class=\"x1o1ewxj x3x9cwd x1e5q0jg x13rtm0m x1ey2m1c xds687c xg01cxk x47corl x10l6tqk x17qophe x13vifvy x1ebt8du x19991ni x1dhq9h\" data-visualcompletion=\"ignore\"></div></div></div></div><div class=\"x1i64zmx\"><div aria-label=\"More\" class=\"x1i10hfl xjbqb8w x6umtig x1b1mbwd xaqea5y xav7gou x1ypdohk xe8uvvx xdj266r x11i5rnm xat24cr x1mh8g0r xexx8yu x4uap5 x18d9i69 xkhd6sd x16tdsg8 x1hl2dhg xggy1nq x1o1ewxj x3x9cwd x1e5q0jg x13rtm0m x87ps6o x1lku1pv x1a2a7pz x9f619 x3nfvp2 xdt5ytf xl56j7k x1n2onr6 xh8yej3\" role=\"button\" tabindex=\"0\"><div class=\"x1n2onr6 x1ja2u2z x78zum5 x2lah0s xl56j7k x6s0dn4 xozqiw3 x1q0g3np xi112ho x17zwfj4 x585lrc x1403ito x972fbf xcfux6l x1qhh985 xm0m39n x9f619 x1qhmfi1 x1r1pt67 x1pi30zi x1swvt13\"><div class=\"x6s0dn4 x78zum5 xl56j7k x1608yet xljgi0e x1e0frkt\" style=\"border: 1px solid red;\"><div class=\"x9f619 x1n2onr6 x1ja2u2z x193iq5w xeuugli x6s0dn4 x78zum5 x2lah0s x1fbi1t2 xl8fo4v\"><i data-visualcompletion=\"css-img\" class=\"x1b0d499 xep6ejk\" style=\"background-image: url(&quot;https://static.xx.fbcdn.net/rsrc.php/v3/yI/r/PZYo-Qx6hO6.png&quot;); background-position: -17px -147px; background-size: auto; width: 16px; height: 16px; background-repeat: no-repeat; display: inline-block;\"></i></div></div><div class=\"x1o1ewxj x3x9cwd x1e5q0jg x13rtm0m x1ey2m1c xds687c xg01cxk x47corl x10l6tqk x17qophe x13vifvy x1ebt8du x19991ni x1dhq9h\" data-visualcompletion=\"ignore\"></div></div></div></div></div></div></div></div></div></div></div><div class=\" x6s0dn4 x78zum5 xdt5ytf x193iq5w\"><div class=\"x193iq5w\"><div class=\"x9f619 x193iq5w x1talbiv x1sltb1f x3fxtfs x1swvt13 x1pi30zi xyamay9\"><div class=\"x9f619 x1n2onr6 x1ja2u2z x2lah0s x1qjc9v5 x78zum5 x1q0g3np xl56j7k x8hhl5t x9otpla x1n0m28w x1wsgfga xp7jhwk\"><div class=\"x9f619 x1n2onr6 x1ja2u2z xeuugli xs83m0k x1xmf6yo x1emribx x1e56ztr x1i64zmx xjl7jj x19h7ccj xu9j1y6 x7ep2pv\"><div class=\"x1yztbdb\"><div class=\"x78zum5 x1n2onr6 xh8yej3\"><div class=\"x9f619 x1n2onr6 x1ja2u2z x2bj2ny x1qpq9i9 xdney7k xu5ydu1 xt3gfkd xh8yej3 x6ikm8r x10wlt62 xquyuld\" style=\"border-radius: max(0px, min(8px, ((100vw - 4px) - 100%) * 9999)) / 8px;\"><div class=\"x1l90r2v xyamay9\" style=\"border: 2px solid yellow;\"><div class=\"x13fuv20 x26u7qi xu3j5b3 x1q0q8m5 x972fbf xm0m39n xcfux6l x1qhh985 x9f619 x78zum5 x1iyjqo2 xs83m0k xdj266r x11i5rnm xat24cr x1mh8g0r x2lwn1j xeuugli x1n2onr6 x1ja2u2z xuk3077 x1q0g3np x1qughib x1iorvi4 x1pi30zi x1l90r2v x1swvt13\"><div class=\"x78zum5 xdt5ytf x4cne27 xifccgj\"><div class=\"xzueoph x1k70j0n\"><h2 class=\"x1heor9g x1qlqyl8 x1pd3egz x1a2a7pz x193iq5w xeuugli\" dir=\"auto\"><span class=\"x193iq5w xeuugli x13faqbe x1vvkbs x1xmvt09 x1lliihq x1s928wv xhkezso x1gmr53x x1cpjm7i x1fgarty x1943h6x xtoi2st x3x7a5m x1603h9y x1u7k74 x1xlr1w8 xzsf02u x1yc453h\" dir=\"auto\" style=\"\">Details</span></h2></div></div></div><div class=\"x1i10hfl x6umtig x1b1mbwd xaqea5y xav7gou x1ypdohk xe8uvvx x1hl2dhg xggy1nq x1o1ewxj x3x9cwd x1e5q0jg x13rtm0m x87ps6o x1lku1pv x1a2a7pz xjyslct xjbqb8w x972fbf xcfux6l x1qhh985 xm0m39n x9f619 x1rg5ohu xdj266r x11i5rnm xat24cr x1mh8g0r xexx8yu x4uap5 x18d9i69 xkhd6sd x1n2onr6 x16tdsg8 xh8yej3\" role=\"button\" tabindex=\"0\"><div class=\"x78zum5 xdt5ytf xwib8y2 x1y1aw1k\"><div class=\"x9f619 x1n2onr6 x1ja2u2z x78zum5 x2lah0s x1nhvcw1 x1cy8zhl xozqiw3 x1q0g3np x1pi30zi x1swvt13 xexx8yu xykv574 xbmpl8g x4cne27 xifccgj\" style=\"border: 1px solid red;\"><div class=\"x9f619 x1n2onr6 x1ja2u2z x78zum5 xdt5ytf x2lah0s x193iq5w xeuugli xsyo7zv x16hj40l x10b6aqq x1yrsyyn\"><i data-visualcompletion=\"css-img\" class=\"x1b0d499 xuo83w3\" style=\"background-image: url(&quot;https://static.xx.fbcdn.net/rsrc.php/v3/yI/r/PZYo-Qx6hO6.png&quot;); background-position: -84px -105px; background-size: auto; width: 20px; height: 20px; background-repeat: no-repeat; display: inline-block;\"></i></div><div class=\"x9f619 x1n2onr6 x1ja2u2z x78zum5 xdt5ytf x193iq5w xeuugli x1r8uery x1iyjqo2 xs83m0k xamitd3 xsyo7zv x16hj40l x10b6aqq x1yrsyyn\"><div class=\"x78zum5 xdt5ytf xz62fqu x16ldp7u\"><div class=\"xu06os2 x1ok221b\"><span class=\"x193iq5w xeuugli x13faqbe x1vvkbs x1xmvt09 x1lliihq x1s928wv xhkezso x1gmr53x x1cpjm7i x1fgarty x1943h6x xudqn12 x3x7a5m x6prxxf xvq8zen xo1l8bm xzsf02u x1yc453h\" dir=\"auto\">16 people responded</span></div></div></div></div></div><div class=\"x1o1ewxj x3x9cwd x1e5q0jg x13rtm0m x1ey2m1c xds687c xg01cxk x47corl x10l6tqk x17qophe x13vifvy x1ebt8du x19991ni x1dhq9h x1wpzbip\" data-visualcompletion=\"ignore\"></div></div><div class=\"xjyslct xjbqb8w x972fbf xcfux6l x1qhh985 xm0m39n x9f619 x1rg5ohu xdj266r x11i5rnm xat24cr x1mh8g0r xexx8yu x4uap5 x18d9i69 xkhd6sd x1n2onr6 x16tdsg8 xh8yej3\"><div class=\"x78zum5 xdt5ytf xwib8y2 x1y1aw1k\"><div class=\"x9f619 x1n2onr6 x1ja2u2z x78zum5 x2lah0s x1nhvcw1 x1cy8zhl xozqiw3 x1q0g3np x1pi30zi x1swvt13 xexx8yu xykv574 xbmpl8g x4cne27 xifccgj\" style=\"border: 1px solid red;\"><div class=\"x9f619 x1n2onr6 x1ja2u2z x78zum5 xdt5ytf x2lah0s x193iq5w xeuugli xsyo7zv x16hj40l x10b6aqq x1yrsyyn\"><i data-visualcompletion=\"css-img\" class=\"x1b0d499 xuo83w3\" style=\"background-image: url(&quot;https://static.xx.fbcdn.net/rsrc.php/v3/yJ/r/wdhsSiXKRj-.png&quot;); background-position: 0px -565px; background-size: auto; width: 20px; height: 20px; background-repeat: no-repeat; display: inline-block;\"></i></div><div class=\"x9f619 x1n2onr6 x1ja2u2z x78zum5 xdt5ytf x193iq5w xeuugli x1r8uery x1iyjqo2 xs83m0k xamitd3 xsyo7zv x16hj40l x10b6aqq x1yrsyyn\"><div class=\"x78zum5 xdt5ytf xz62fqu x16ldp7u\"><div class=\"xu06os2 x1ok221b\"><span class=\"x193iq5w xeuugli x13faqbe x1vvkbs x1xmvt09 x1lliihq x1s928wv xhkezso x1gmr53x x1cpjm7i x1fgarty x1943h6x xudqn12 x3x7a5m x6prxxf xvq8zen xo1l8bm xzsf02u x1yc453h\" dir=\"auto\">Event by <strong><a class=\"x1i10hfl xjbqb8w x6umtig x1b1mbwd xaqea5y xav7gou x9f619 x1ypdohk xt0psk2 xe8uvvx xdj266r x11i5rnm xat24cr x1mh8g0r xexx8yu x4uap5 x18d9i69 xkhd6sd x16tdsg8 x1hl2dhg xggy1nq x1a2a7pz xt0b8zv xzsf02u x1s688f\" href=\"https://www.facebook.com/WAS.CT\" role=\"link\" tabindex=\"0\">Westport Astronomical Society</a></strong></span></div></div></div></div></div></div><div class=\"xjyslct xjbqb8w x972fbf xcfux6l x1qhh985 xm0m39n x9f619 x1rg5ohu xdj266r x11i5rnm xat24cr x1mh8g0r xexx8yu x4uap5 x18d9i69 xkhd6sd x1n2onr6 x16tdsg8 xh8yej3\"><div class=\"x78zum5 xdt5ytf xwib8y2 x1y1aw1k\"><div class=\"x9f619 x1n2onr6 x1ja2u2z x78zum5 x2lah0s x1nhvcw1 x1cy8zhl xozqiw3 x1q0g3np x1pi30zi x1swvt13 xexx8yu xykv574 xbmpl8g x4cne27 xifccgj\" style=\"border: 1px solid red;\"><div class=\"x9f619 x1n2onr6 x1ja2u2z x78zum5 xdt5ytf x2lah0s x193iq5w xeuugli xsyo7zv x16hj40l x10b6aqq x1yrsyyn\"><i data-visualcompletion=\"css-img\" class=\"x1b0d499 xuo83w3\" style=\"background-image: url(&quot;https://static.xx.fbcdn.net/rsrc.php/v3/yL/r/tkcV7hWNYP-.png&quot;); background-position: 0px -162px; background-size: auto; width: 20px; height: 20px; background-repeat: no-repeat; display: inline-block;\"></i></div><div class=\"x9f619 x1n2onr6 x1ja2u2z x78zum5 xdt5ytf x193iq5w xeuugli x1r8uery x1iyjqo2 xs83m0k xamitd3 xsyo7zv x16hj40l x10b6aqq x1yrsyyn\"><div class=\"x78zum5 xdt5ytf xz62fqu x16ldp7u\"><div class=\"xu06os2 x1ok221b\"><span class=\"x193iq5w xeuugli x13faqbe x1vvkbs x1xmvt09 x1lliihq x1s928wv xhkezso x1gmr53x x1cpjm7i x1fgarty x1943h6x xudqn12 x3x7a5m x6prxxf xvq8zen xo1l8bm xzsf02u x1yc453h\" dir=\"auto\">Public<span><span class=\"xzpqnlu xjm9jq1 x6ikm8r x10wlt62 x10l6tqk x1i1rx1s\">&nbsp;</span><span aria-hidden=\"true\"> · </span></span>Anyone on or off Facebook</span></div></div></div></div></div></div><div class=\"x1pi30zi x1swvt13\"><div class=\"x1ni5s2d\"><span class=\"x193iq5w xeuugli x13faqbe x1vvkbs x1xmvt09 x1lliihq x1s928wv xhkezso x1gmr53x x1cpjm7i x1fgarty x1943h6x xudqn12 x3x7a5m x6prxxf xvq8zen xo1l8bm xzsf02u\" dir=\"auto\"><div class=\"x11i5rnm xat24cr x1mh8g0r x1vvkbs xdj266r\">This lecture will be hosted as a Webinar on Zoom as well as a live stream on our YouTube channel. We encourage you to participate, ask questions and be a part of the live meeting. </div><div class=\"x11i5rnm xat24cr x1mh8g0r x1vvkbs xtlvy1s\"><br> </div><div class=\"x11i5rnm xat24cr x1mh8g0r x1vvkbs xtlvy1s\">Brett Denevi is a principal staff scientist at the Johns Hopkins University Applied Physics Laboratory. Her research focuses on the origin and evolution of planetary surfaces, particularly the history of volcanism, the effects of impact cratering, and space weathering. She has been a member of numerous NASA mission teams including four ongoing or upcoming missions to the Moon: deputy principal investigator of the Lunar Reconnaissance Orbiter Camera, co-investigator on NASA’s ShadowCam instrument on the KARI Danuri orbiter, and co-investigator on Lunar Vertex and Lunar-VISE (to land on the Moon in 2024 and 2026, respectively). Denevi served on the steering group of the recent Planetary Science and Astrobiology Decadal Survey and as Vice Chair for the Panel on the Moon and Mercury, is the science chair of NASA’s Lunar Exploration Analysis Group, and is the recipient of a NASA Early Career Fellowship, seven NASA group achievement awards, and asteroid 9026 Denevi was named in her honor.  <div class=\"x1i10hfl xjbqb8w x6umtig x1b1mbwd xaqea5y xav7gou x9f619 x1ypdohk xt0psk2 xe8uvvx xdj266r x11i5rnm xat24cr x1mh8g0r xexx8yu x4uap5 x18d9i69 xkhd6sd x16tdsg8 x1hl2dhg xggy1nq x1a2a7pz xt0b8zv xzsf02u x1s688f\" role=\"button\" tabindex=\"0\">See less</div></div></span><div class=\"x78zum5 x1a02dak\"><div class=\"x1emribx\"><a class=\"x1i10hfl xjbqb8w x6umtig x1b1mbwd xaqea5y xav7gou x9f619 x1ypdohk xt0psk2 xe8uvvx xdj266r x11i5rnm xat24cr x1mh8g0r xexx8yu x4uap5 x18d9i69 xkhd6sd x16tdsg8 x1hl2dhg xggy1nq x1a2a7pz x1heor9g xt0b8zv\" href=\"https://www.facebook.com/events/discovery/?suggestion_token=%7B%22event_categories%22%3A%5B2375346995933355%5D%7D\" role=\"link\" tabindex=\"0\"><div class=\"x6s0dn4 x1qhmfi1 x1lcm9me x1yr5g0i xrt01vj x10y3i5r x9f619 x78zum5 xl56j7k x12nagc x1gslohp x1y1aw1k x1sxyh0 xwib8y2 xurb0ha\"><span class=\"x193iq5w xeuugli x13faqbe x1vvkbs x1xmvt09 x1lliihq x1s928wv xhkezso x1gmr53x x1cpjm7i x1fgarty x1943h6x x4zkp8e x676frb x1nxh6w3 x1sibtaa x1s688f xzsf02u\" dir=\"auto\">Parties</span></div></a></div><div><a class=\"x1i10hfl xjbqb8w x6umtig x1b1mbwd xaqea5y xav7gou x9f619 x1ypdohk xt0psk2 xe8uvvx xdj266r x11i5rnm xat24cr x1mh8g0r xexx8yu x4uap5 x18d9i69 xkhd6sd x16tdsg8 x1hl2dhg xggy1nq x1a2a7pz x1heor9g xt0b8zv\" href=\"https://www.facebook.com/events/discovery/?suggestion_token=%7B%22event_flags%22%3A%5B%22online%22%5D%7D\" role=\"link\" tabindex=\"0\"><div class=\"x6s0dn4 x1qhmfi1 x1lcm9me x1yr5g0i xrt01vj x10y3i5r x9f619 x78zum5 xl56j7k x12nagc x1gslohp x1y1aw1k x1sxyh0 xwib8y2 xurb0ha\"><span class=\"x193iq5w xeuugli x13faqbe x1vvkbs x1xmvt09 x1lliihq x1s928wv xhkezso x1gmr53x x1cpjm7i x1fgarty x1943h6x x4zkp8e x676frb x1nxh6w3 x1sibtaa x1s688f xzsf02u\" dir=\"auto\">Online</span></div></a></div></div></div></div></div></div></div></div><div class=\"x1yztbdb\"><div class=\"x78zum5 x1n2onr6 xh8yej3\"><div class=\"x9f619 x1n2onr6 x1ja2u2z x2bj2ny x1qpq9i9 xdney7k xu5ydu1 xt3gfkd xh8yej3 x6ikm8r x10wlt62 xquyuld\" style=\"border-radius: max(0px, min(8px, ((100vw - 4px) - 100%) * 9999)) / 8px;\"><div class=\"x1l90r2v xyamay9\"><div class=\"x13fuv20 x26u7qi xu3j5b3 x1q0q8m5 x972fbf xm0m39n xcfux6l x1qhh985 x9f619 x78zum5 x1iyjqo2 xs83m0k xdj266r x11i5rnm xat24cr x1mh8g0r x2lwn1j xeuugli x1n2onr6 x1ja2u2z xuk3077 x1q0g3np x1qughib x1iorvi4 x1pi30zi x1l90r2v x1swvt13\"><div class=\"x78zum5 xdt5ytf x4cne27 xifccgj\"><div class=\"xzueoph x1k70j0n\"><h2 class=\"x1heor9g x1qlqyl8 x1pd3egz x1a2a7pz x193iq5w xeuugli\" dir=\"auto\"><span class=\"x193iq5w xeuugli x13faqbe x1vvkbs x1xmvt09 x1lliihq x1s928wv xhkezso x1gmr53x x1cpjm7i x1fgarty x1943h6x xtoi2st x3x7a5m x1603h9y x1u7k74 x1xlr1w8 xzsf02u x1yc453h\" dir=\"auto\" style=\"\">Meet Your Host</span></h2></div></div></div><div><div class=\"x7ggn4r xhepvqq\"><div class=\"x9f619 x1n2onr6 x1ja2u2z\"><div aria-hidden=\"true\" class=\"x10l6tqk xwa60dl x1d8287x x19991ni xwji4o3 x1vjfegm xg01cxk x47corl\" style=\"left: 0px; transform: translate(calc(-50% - 0px), -50%);\"><div aria-disabled=\"true\" aria-label=\"Previous items\" class=\"x1i10hfl x6umtig x1b1mbwd xaqea5y xav7gou xe8uvvx xdj266r x11i5rnm xat24cr x1mh8g0r x16tdsg8 x1hl2dhg xggy1nq x1h6gzvc x87ps6o x1lku1pv x1a2a7pz x6s0dn4 x14yjl9h xudhj91 x18nykt9 xww2gxu x9f619 x78zum5 xl56j7k xexx8yu x4uap5 x18d9i69 xkhd6sd x1n2onr6 xsdox4t x1useyqa x1ahlmzr x972fbf xcfux6l x1qhh985 xm0m39n xxnfx33 x1dntmbh\" role=\"button\" tabindex=\"-1\"><svg fill=\"currentColor\" viewBox=\"0 0 20 20\" width=\"1em\" height=\"1em\" class=\"x1lliihq x1k90msu x2h7rmj x1qfuztq x1eu2eya xxk0z11 xvy4d1p\"><path d=\"M12.2 4.53 6.727 10l5.47 5.47a.75.75 0 0 1-1.061 1.06l-6-6a.751.751 0 0 1 0-1.06l6-6A.75.75 0 1 1 12.2 4.53z\"></path></svg><div class=\"x1ey2m1c xds687c xg01cxk x47corl x10l6tqk x17qophe x13vifvy x1ebt8du x19991ni x1dhq9h x14yjl9h xudhj91 x18nykt9 xww2gxu\" data-visualcompletion=\"ignore\"></div></div></div><div aria-label=\"event\" role=\"region\" class=\"x9f619 x1n2onr6 x1ja2u2z x1wsgfga x9otpla xwib8y2 x1y1aw1k\"><div class=\"xb57i2i x1q594ok x5lxg6s x78zum5 xdt5ytf x10wlt62 x1n2onr6 x1ja2u2z x1pq812k xfk6m8 x1yqm8si xjx87ck xw2csxc x7p5m3t x9f619 xat24cr xwib8y2 x1y1aw1k x1rohswg xhfbhpw\" style=\"scroll-padding: 0px;\"><div class=\"x78zum5 x1iyjqo2 x1n2onr6 x1q0g3np\"><div aria-hidden=\"false\" class=\"x1c4vz4f x2lah0s xeuugli x1bhewko xq8finb xnqqybz\" style=\"flex-basis: max(max(max((100% - 36px) / 4, min((100% - 24px) / 3, (1300px - 100%) * 9999)), min((100% - 12px) / 2, (972px - 100%) * 9999)), min(100%, (644px - 100%) * 9999));\"><div><a class=\"x1i10hfl xjbqb8w xjqpnuy xa49m3k xqeqjp1 x2hbi6w x13fuv20 xu3j5b3 x1q0q8m5 x26u7qi x972fbf xcfux6l x1qhh985 xm0m39n x9f619 x1ypdohk xdl72j9 x2lah0s xe8uvvx xdj266r x11i5rnm xat24cr x1mh8g0r x2lwn1j xeuugli xexx8yu x4uap5 x18d9i69 xkhd6sd x16tdsg8 x1hl2dhg xggy1nq x1ja2u2z x1t137rt x1o1ewxj x3x9cwd x1e5q0jg x13rtm0m x1q0g3np x87ps6o x1lku1pv x1a2a7pz x1qjc9v5 x78zum5 x5yr21d x1n2onr6 xeaf4i8 xh8yej3\" href=\"https://www.facebook.com/WAS.CT\" role=\"link\" tabindex=\"0\"><div class=\"x78zum5 x1n2onr6 xh8yej3\"><div class=\"x9f619 x1n2onr6 x1ja2u2z xjbqb8w x1qpq9i9 xdney7k xu5ydu1 xt3gfkd xh8yej3 x6ikm8r x10wlt62 xquyuld\" style=\"border-radius: max(0px, min(8px, ((100vw - 4px) - 100%) * 9999)) / 8px;\"><div class=\"x9f619 x78zum5 xdt5ytf x5yr21d xn6708d xsag5q8 x1ye3gou x2b8uid x1cnzs8\"><div class=\"x1a842fp\"><div class=\"x1rg5ohu x1n2onr6 x3ajldb x1ja2u2z\"><svg aria-hidden=\"true\" class=\"x3ajldb\" data-visualcompletion=\"ignore-dynamic\" role=\"none\" style=\"height: 168px; width: 168px;\"><mask id=\"jsc_c_9c\"><circle cx=\"84\" cy=\"84\" fill=\"white\" r=\"84\"></circle></mask><g mask=\"url(#jsc_c_9c)\"><image x=\"0\" y=\"0\" height=\"100%\" preserveAspectRatio=\"xMidYMid slice\" width=\"100%\" xlink:href=\"https://scontent.flis12-1.fna.fbcdn.net/v/t39.30808-1/308687358_502721995196849_6065378828634530908_n.jpg?stp=dst-jpg_p200x200&amp;_nc_cat=102&amp;ccb=1-7&amp;_nc_sid=c6021c&amp;_nc_ohc=c-o47EjohSIAX8xo-O_&amp;_nc_ht=scontent.flis12-1.fna&amp;oh=00_AfBz2vg7WC4ypvJHDNO5yuVObs8e_akNo0P4oIobpJt8xg&amp;oe=6386CBFE\" style=\"height: 168px; width: 168px;\"></image><circle class=\"x1pwv2dq xvlca1e xbh8q5q\" cx=\"84\" cy=\"84\" r=\"84\"></circle></g></svg></div></div><div class=\"x1r4l5d8 xod5an3 xz9dl7a xn6708d x1l90r2v x1ye3gou\"><div class=\"x78zum5 xdt5ytf xz62fqu x16ldp7u\"><div class=\"xu06os2 x1ok221b\"><span class=\"x193iq5w xeuugli x13faqbe x1vvkbs x1xmvt09 x1lliihq x1s928wv xhkezso x1gmr53x x1cpjm7i x1fgarty x1943h6x xudqn12 x3x7a5m x1lkfr7t x1lbecb7 x1s688f xzsf02u x2b8uid\" dir=\"auto\"><span class=\"x1lliihq x6ikm8r x10wlt62 x1n2onr6 xlyipyv xuxw1ft x1j85h84\">Westport Astronomical Society</span></span></div><div class=\"xu06os2 x1ok221b\"><span class=\"x193iq5w xeuugli x13faqbe x1vvkbs x1xmvt09 x1lliihq x1s928wv xhkezso x1gmr53x x1cpjm7i x1fgarty x1943h6x x4zkp8e x676frb x1nxh6w3 x1sibtaa xo1l8bm xi81zsa x2b8uid\" dir=\"auto\">136 past events <span><span class=\"xzpqnlu xjm9jq1 x6ikm8r x10wlt62 x10l6tqk x1i1rx1s\">&nbsp;</span><span aria-hidden=\"true\"> · </span></span>Page · Education</span></div></div></div><div class=\"xqvfhly xsag5q8\"><span class=\"x193iq5w xeuugli x13faqbe x1vvkbs x1xmvt09 x1lliihq x1s928wv xhkezso x1gmr53x x1cpjm7i x1fgarty x1943h6x x4zkp8e x3x7a5m x1nxh6w3 x1sibtaa xo1l8bm xzsf02u x1yc453h\" dir=\"auto\"><span class=\"x1lliihq x6ikm8r x10wlt62 x1n2onr6 x1j85h84\" style=\"-webkit-box-orient: vertical; -webkit-line-clamp: 3; display: -webkit-box;\"><div class=\"x11i5rnm xat24cr x1mh8g0r x1vvkbs xdj266r\"><div dir=\"auto\" style=\"text-align: start;\">Upcoming public nights are on Wednesday nights from 8-10 (after sunset during the summer). For updat</div></div></span></span></div><div><div class=\" xh8yej3\"><object type=\"nested/pressable\"><a aria-label=\"Sign Up\" class=\"x1i10hfl xjbqb8w x6umtig x1b1mbwd xaqea5y xav7gou x1ypdohk xe8uvvx xdj266r x11i5rnm xat24cr x1mh8g0r xexx8yu x4uap5 x18d9i69 xkhd6sd x16tdsg8 x1hl2dhg xggy1nq x1o1ewxj x3x9cwd x1e5q0jg x13rtm0m x87ps6o x1lku1pv x1a2a7pz x9f619 x3nfvp2 xdt5ytf xl56j7k x1n2onr6 xh8yej3\" href=\"https://l.facebook.com/l.php?u=https%3A%2F%2Fwww.was-ct.org%2Fmembership%2F%3Ffbclid%3DIwAR1UEY258Udh9pNLSN3UwLdAEdY23QjBL03TrRw5QOwgTPSuQ_uBn5QmzVc&amp;h=AT0yukOXWycJuN22XU-o49jid5MdsKkGTIMwbrEKeY31yNpCWknuzNsrg8mdPVrjjDCZszjOBRHBmuw0noVr1hHjbmlR9tC64WwxJ0aQj2pcS8RRNMyCDDd2RBOsG3l1FqavGg\" rel=\"nofollow noopener\" role=\"link\" tabindex=\"0\" target=\"_blank\"><div class=\"x1n2onr6 x1ja2u2z x78zum5 x2lah0s xl56j7k x6s0dn4 xozqiw3 x1q0g3np xi112ho x17zwfj4 x585lrc x1403ito x972fbf xcfux6l x1qhh985 xm0m39n x9f619 xn6708d x1ye3gou x1qhmfi1 x1r1pt67\"><div class=\"x6s0dn4 x78zum5 xl56j7k x1608yet xljgi0e x1e0frkt\"><div class=\"x9f619 x1n2onr6 x1ja2u2z x193iq5w xeuugli x6s0dn4 x78zum5 x2lah0s x1fbi1t2 xl8fo4v\"><img class=\"x1b0d499 xep6ejk\" src=\"https://static.xx.fbcdn.net/rsrc.php/v3/yW/r/OR6SzrfoMFg.png\" alt=\"\" height=\"16\" width=\"16\"></div><div class=\"x9f619 x1n2onr6 x1ja2u2z x193iq5w xeuugli x6s0dn4 x78zum5 x2lah0s x1fbi1t2 xl8fo4v\"><span class=\"x193iq5w xeuugli x13faqbe x1vvkbs x1xmvt09 x1lliihq x1s928wv xhkezso x1gmr53x x1cpjm7i x1fgarty x1943h6x xudqn12 x3x7a5m x6prxxf xvq8zen x1s688f x1dem4cn\" dir=\"auto\"><span class=\"x1lliihq x6ikm8r x10wlt62 x1n2onr6 xlyipyv xuxw1ft\">Sign Up</span></span></div></div><div class=\"x1o1ewxj x3x9cwd x1e5q0jg x13rtm0m x1ey2m1c xds687c xg01cxk x47corl x10l6tqk x17qophe x13vifvy x1ebt8du x19991ni x1dhq9h\" data-visualcompletion=\"ignore\"></div></div></a></object></div></div></div></div><div class=\"x1lq5wgf xgqcy7u x30kzoy x9jhf4c x1ey2m1c xlg9a9y x9f619 xds687c x47corl x10l6tqk x17qophe x13vifvy\"></div></div><div class=\"x1o1ewxj x3x9cwd x1e5q0jg x13rtm0m x1ey2m1c xds687c xg01cxk x47corl x10l6tqk x17qophe x13vifvy x1ebt8du x19991ni x1dhq9h x1wpzbip\" data-visualcompletion=\"ignore\"></div></a></div></div></div></div></div><div aria-hidden=\"true\" class=\"x10l6tqk xwa60dl x1d8287x x19991ni xwji4o3 x1vjfegm xg01cxk x47corl\" style=\"right: 0px; transform: translate(calc(50% + 0px), -50%);\"><div aria-label=\"Next items\" class=\"x1i10hfl x6umtig x1b1mbwd xaqea5y xav7gou xe8uvvx xdj266r x11i5rnm xat24cr x1mh8g0r x16tdsg8 x1hl2dhg xggy1nq x1h6gzvc x87ps6o x1lku1pv x1a2a7pz x6s0dn4 x14yjl9h xudhj91 x18nykt9 xww2gxu x9f619 x78zum5 xl56j7k xexx8yu x4uap5 x18d9i69 xkhd6sd x1n2onr6 xsdox4t x1useyqa x1ahlmzr x972fbf xcfux6l x1qhh985 xm0m39n xxnfx33 x1dntmbh\" role=\"button\" tabindex=\"-1\" aria-disabled=\"true\"><svg fill=\"currentColor\" viewBox=\"0 0 20 20\" width=\"1em\" height=\"1em\" class=\"x1lliihq x1k90msu x2h7rmj x1qfuztq x1eu2eya xxk0z11 xvy4d1p\"><path d=\"M7.8 4.53 13.273 10 7.8 15.47a.75.75 0 0 0 1.061 1.06l6-6a.751.751 0 0 0 0-1.06l-6-6A.75.75 0 0 0 7.8 4.53z\"></path></svg><div class=\"x1ey2m1c xds687c xg01cxk x47corl x10l6tqk x17qophe x13vifvy x1ebt8du x19991ni x1dhq9h x14yjl9h xudhj91 x18nykt9 xww2gxu\" data-visualcompletion=\"ignore\"></div></div></div></div></div></div></div></div></div></div></div><div class=\"x9f619 x1n2onr6 x1ja2u2z xeuugli xs83m0k x1xmf6yo x1emribx x1e56ztr x1i64zmx xjl7jj xnp8db0 x1d1medc x7ep2pv x1xzczws\"><div style=\"height: 0px;\"></div><div class=\"x7wzq59\" style=\"top: 132px;\"><div class=\"x1yztbdb\"><div class=\"x78zum5 x1n2onr6 xh8yej3\"><div class=\"x9f619 x1n2onr6 x1ja2u2z x2bj2ny x1qpq9i9 xdney7k xu5ydu1 xt3gfkd xh8yej3 x6ikm8r x10wlt62 xquyuld\" style=\"border-radius: max(0px, min(8px, ((100vw - 4px) - 100%) * 9999)) / 8px;\"><div class=\"x1l90r2v xyamay9\"><div class=\"x13fuv20 x26u7qi xu3j5b3 x1q0q8m5 x972fbf xm0m39n xcfux6l x1qhh985 x9f619 x78zum5 x1iyjqo2 xs83m0k xdj266r x11i5rnm xat24cr x1mh8g0r x2lwn1j xeuugli x1n2onr6 x1ja2u2z xuk3077 x1q0g3np x1qughib x1iorvi4 x1pi30zi x1l90r2v x1swvt13\"><div class=\"x78zum5 xdt5ytf x4cne27 xifccgj\"><div class=\"xzueoph x1k70j0n\"><h2 class=\"x1heor9g x1qlqyl8 x1pd3egz x1a2a7pz x193iq5w xeuugli\" dir=\"auto\"><span class=\"x193iq5w xeuugli x13faqbe x1vvkbs x1xmvt09 x1lliihq x1s928wv xhkezso x1gmr53x x1cpjm7i x1fgarty x1943h6x xtoi2st x3x7a5m x1603h9y x1u7k74 x1xlr1w8 xzsf02u x1yc453h\" dir=\"auto\" style=\"\">Guests</span></h2></div></div><div class=\"x1i10hfl xjbqb8w x6umtig x1b1mbwd xaqea5y xav7gou x9f619 x1ypdohk xt0psk2 xe8uvvx xdj266r x11i5rnm xat24cr x1mh8g0r xexx8yu x4uap5 x18d9i69 xkhd6sd x16tdsg8 x1hl2dhg xggy1nq x1a2a7pz x1heor9g xt0b8zv\" role=\"button\" tabindex=\"0\"><span class=\"x193iq5w xeuugli x13faqbe x1vvkbs x1xmvt09 x1lliihq x1s928wv xhkezso x1gmr53x x1cpjm7i x1fgarty x1943h6x xudqn12 x3x7a5m x6prxxf xvq8zen xo1l8bm x1fey0fg\" dir=\"auto\">See All</span></div></div><div class=\"x1pi30zi x1swvt13\"><div class=\"x9f619 x1n2onr6 x1ja2u2z x78zum5 x2lah0s x1qughib x1qjc9v5 xozqiw3 x1q0g3np xexx8yu\"><div class=\"x9f619 x1n2onr6 x1ja2u2z x78zum5 xdt5ytf x193iq5w xeuugli x1r8uery x1iyjqo2 xs83m0k\"><div class=\"x1i10hfl xjbqb8w x6umtig x1b1mbwd xaqea5y xav7gou x9f619 x1ypdohk xt0psk2 xe8uvvx xdj266r x11i5rnm xat24cr x1mh8g0r xexx8yu x4uap5 x18d9i69 xkhd6sd x16tdsg8 x1hl2dhg xggy1nq x1o1ewxj x3x9cwd x1e5q0jg x13rtm0m x1n2onr6 x87ps6o x1lku1pv x1a2a7pz\" role=\"button\" tabindex=\"0\"><div class=\"x6s0dn4 x78zum5 xdt5ytf x1l90r2v x1sxyh0 xurb0ha xyamay9\"><span class=\"x193iq5w xeuugli x13faqbe x1vvkbs x1xmvt09 x1lliihq x1s928wv xhkezso x1gmr53x x1cpjm7i x1fgarty x1943h6x xtoi2st x3x7a5m x1603h9y x1u7k74 x1xlr1w8 xzsf02u x2b8uid\" dir=\"auto\">2</span><div class=\"xdk7pt\"></div><span class=\"x193iq5w xeuugli x13faqbe x1vvkbs x1xmvt09 x1lliihq x1s928wv xhkezso x1gmr53x x1cpjm7i x1fgarty x1943h6x x4zkp8e x676frb x1nxh6w3 x1sibtaa x1s688f xi81zsa x2b8uid\" dir=\"auto\">GOING</span></div><div class=\"x1o1ewxj x3x9cwd x1e5q0jg x13rtm0m x1ey2m1c xds687c xg01cxk x47corl x10l6tqk x17qophe x13vifvy x1ebt8du x19991ni x1dhq9h x1wpzbip\" data-visualcompletion=\"ignore\" style=\"border-radius: 6px;\"></div></div></div><div class=\"x9f619 x1n2onr6 x1ja2u2z x78zum5 xdt5ytf x193iq5w xeuugli x1r8uery x1iyjqo2 xs83m0k\"><div class=\"x1i10hfl xjbqb8w x6umtig x1b1mbwd xaqea5y xav7gou x9f619 x1ypdohk xt0psk2 xe8uvvx xdj266r x11i5rnm xat24cr x1mh8g0r xexx8yu x4uap5 x18d9i69 xkhd6sd x16tdsg8 x1hl2dhg xggy1nq x1o1ewxj x3x9cwd x1e5q0jg x13rtm0m x1n2onr6 x87ps6o x1lku1pv x1a2a7pz\" role=\"button\" tabindex=\"0\"><div class=\"x6s0dn4 x78zum5 xdt5ytf x1l90r2v x1sxyh0 xurb0ha xyamay9\"><span class=\"x193iq5w xeuugli x13faqbe x1vvkbs x1xmvt09 x1lliihq x1s928wv xhkezso x1gmr53x x1cpjm7i x1fgarty x1943h6x xtoi2st x3x7a5m x1603h9y x1u7k74 x1xlr1w8 xzsf02u x2b8uid\" dir=\"auto\">14</span><div class=\"xdk7pt\"></div><span class=\"x193iq5w xeuugli x13faqbe x1vvkbs x1xmvt09 x1lliihq x1s928wv xhkezso x1gmr53x x1cpjm7i x1fgarty x1943h6x x4zkp8e x676frb x1nxh6w3 x1sibtaa x1s688f xi81zsa x2b8uid\" dir=\"auto\">INTERESTED</span></div><div class=\"x1o1ewxj x3x9cwd x1e5q0jg x13rtm0m x1ey2m1c xds687c xg01cxk x47corl x10l6tqk x17qophe x13vifvy x1ebt8du x19991ni x1dhq9h\" data-visualcompletion=\"ignore\"></div></div></div></div></div><div class=\"x14nfmen xjm9jq1 x1d52u69 xktsk01 x1xmf6yo\"></div><div class=\"xyamay9 x4uap5 x18d9i69 x1swvt13\"><div class=\"x78zum5 xdt5ytf x4cne27 xifccgj\"><div class=\"xzueoph x1k70j0n\"><h2 class=\"x1heor9g x1qlqyl8 x1pd3egz x1a2a7pz x193iq5w xeuugli\" dir=\"auto\"><span class=\"x193iq5w xeuugli x13faqbe x1vvkbs x1xmvt09 x1lliihq x1s928wv xhkezso x1gmr53x x1cpjm7i x1fgarty x1943h6x xtoi2st x3x7a5m x1603h9y x1u7k74 x1xlr1w8 xzsf02u x1yc453h\" dir=\"auto\" style=\"\">Go With Friends</span></h2></div></div></div><div class=\"xod5an3 xw7yly9\"><div class=\" x1oo3vh0 x1rdy4ex\" role=\"list\"><div data-visualcompletion=\"ignore-dynamic\" role=\"listitem\" style=\"padding-left: 8px; padding-right: 8px;\"><a class=\"x1i10hfl x1qjc9v5 xjbqb8w xjqpnuy xa49m3k xqeqjp1 x2hbi6w x13fuv20 xu3j5b3 x1q0q8m5 x26u7qi x972fbf xcfux6l x1qhh985 xm0m39n x9f619 x1ypdohk xdl72j9 x2lah0s xe8uvvx xdj266r x11i5rnm xat24cr x1mh8g0r x2lwn1j xeuugli xexx8yu x4uap5 x18d9i69 xkhd6sd x1n2onr6 x16tdsg8 x1hl2dhg xggy1nq x1ja2u2z x1t137rt x1q0g3np x87ps6o x1lku1pv x1a2a7pz x1lq5wgf xgqcy7u x30kzoy x9jhf4c x1lliihq\" href=\"https://www.facebook.com/caroline.sinders\" role=\"link\" tabindex=\"0\"><div class=\"x6s0dn4 x1q0q8m5 x1qhh985 xu3j5b3 xcfux6l x26u7qi xm0m39n x13fuv20 x972fbf x9f619 x78zum5 x1q0g3np x1iyjqo2 xs83m0k x1qughib xat24cr x11i5rnm x1mh8g0r xdj266r xeuugli x18d9i69 x1sxyh0 xurb0ha xexx8yu x1n2onr6 x1ja2u2z x1gg8mnh\"><div class=\"x78zum5 xdt5ytf xq8finb x1xmf6yo x1e56ztr x1n2onr6 xqcrz7y\"><div class=\"x1rg5ohu x1n2onr6 x3ajldb x1ja2u2z\"><svg aria-hidden=\"true\" class=\"x3ajldb\" data-visualcompletion=\"ignore-dynamic\" role=\"none\" style=\"height: 36px; width: 36px;\"><mask id=\"jsc_c_98\"><circle cx=\"18\" cy=\"18\" fill=\"white\" r=\"18\"></circle></mask><g mask=\"url(#jsc_c_98)\"><image x=\"0\" y=\"0\" height=\"100%\" preserveAspectRatio=\"xMidYMid slice\" width=\"100%\" xlink:href=\"https://scontent.flis12-2.fna.fbcdn.net/v/t39.30808-1/220054139_10218779355904893_8811946698173131806_n.jpg?stp=cp0_dst-jpg_p40x40&amp;_nc_cat=109&amp;ccb=1-7&amp;_nc_sid=7206a8&amp;_nc_ohc=lNtZB5uo8NAAX_0x4l1&amp;_nc_ht=scontent.flis12-2.fna&amp;oh=00_AfAAQqoBvxuTlOn1CVzp610AuLeMmCKL-MDysV98cGUSnw&amp;oe=6385ABFC\" style=\"height: 36px; width: 36px;\"></image><circle class=\"x1pwv2dq xvlca1e xbh8q5q\" cx=\"18\" cy=\"18\" r=\"18\"></circle></g></svg></div></div><div class=\"x6s0dn4 xkh2ocl x1q0q8m5 x1qhh985 xu3j5b3 xcfux6l x26u7qi xm0m39n x13fuv20 x972fbf x9f619 x78zum5 x1q0g3np x1iyjqo2 xs83m0k x1qughib xat24cr x11i5rnm x1mh8g0r xdj266r x2lwn1j xeuugli x18d9i69 x4uap5 xkhd6sd xexx8yu x1n2onr6 x1ja2u2z\"><div class=\"x1q0q8m5 x1qhh985 xu3j5b3 xcfux6l x26u7qi xm0m39n x13fuv20 x972fbf x9f619 x78zum5 x1r8uery x1iyjqo2 xs83m0k x1qughib x11i5rnm x1mh8g0r x2lwn1j xeuugli x4uap5 xkhd6sd x1n2onr6 x1ja2u2z x1qjc9v5 xdt5ytf xat24cr xdj266r xz9dl7a xsag5q8\"><div class=\"\"><div class=\"x78zum5 xdt5ytf xz62fqu x16ldp7u\"><div class=\"xu06os2 x1ok221b\"><span class=\"x193iq5w xeuugli x13faqbe x1vvkbs x1xmvt09 x1lliihq x1s928wv xhkezso x1gmr53x x1cpjm7i x1fgarty x1943h6x xudqn12 x3x7a5m x6prxxf xvq8zen xo1l8bm xzsf02u x1yc453h\" dir=\"auto\"><span class=\"xt0psk2\"><span>Caroline Sinders</span></span></span></div></div></div></div><div class=\"x16n37ib x1n2onr6 x1e56ztr x1xmf6yo xamitd3\"><div class=\"x6s0dn4 x78zum5 x1q0g3np\"><div class=\"\"><div aria-label=\"Invite\" class=\"x1i10hfl xjbqb8w x6umtig x1b1mbwd xaqea5y xav7gou x1ypdohk xe8uvvx xdj266r x11i5rnm xat24cr x1mh8g0r xexx8yu x4uap5 x18d9i69 xkhd6sd x16tdsg8 x1hl2dhg xggy1nq x1o1ewxj x3x9cwd x1e5q0jg x13rtm0m x87ps6o x1lku1pv x1a2a7pz x9f619 x3nfvp2 xdt5ytf xl56j7k x1n2onr6 xh8yej3\" role=\"button\" tabindex=\"0\"><div class=\"x1n2onr6 x1ja2u2z x78zum5 x2lah0s xl56j7k x6s0dn4 xozqiw3 x1q0g3np xi112ho x17zwfj4 x585lrc x1403ito x972fbf xcfux6l x1qhh985 xm0m39n x9f619 xn6708d x1ye3gou x1qhmfi1 x1r1pt67\"><div class=\"x6s0dn4 x78zum5 xl56j7k x1608yet xljgi0e x1e0frkt\"><div class=\"x9f619 x1n2onr6 x1ja2u2z x193iq5w xeuugli x6s0dn4 x78zum5 x2lah0s x1fbi1t2 xl8fo4v\"><span class=\"x193iq5w xeuugli x13faqbe x1vvkbs x1xmvt09 x1lliihq x1s928wv xhkezso x1gmr53x x1cpjm7i x1fgarty x1943h6x xudqn12 x3x7a5m x6prxxf xvq8zen x1s688f x1dem4cn\" dir=\"auto\"><span class=\"x1lliihq x6ikm8r x10wlt62 x1n2onr6 xlyipyv xuxw1ft\">Invite</span></span></div></div><div class=\"x1o1ewxj x3x9cwd x1e5q0jg x13rtm0m x1ey2m1c xds687c xg01cxk x47corl x10l6tqk x17qophe x13vifvy x1ebt8du x19991ni x1dhq9h x1wpzbip\" data-visualcompletion=\"ignore\"></div></div></div></div></div></div></div></div><div class=\"x1o1ewxj x3x9cwd x1e5q0jg x13rtm0m x1ey2m1c xds687c xg01cxk x47corl x10l6tqk x17qophe x13vifvy x1ebt8du x19991ni x1dhq9h x1wpzbip\" data-visualcompletion=\"ignore\"></div></a></div><div data-visualcompletion=\"ignore-dynamic\" role=\"listitem\" style=\"padding-left: 8px; padding-right: 8px;\"><a class=\"x1i10hfl x1qjc9v5 xjbqb8w xjqpnuy xa49m3k xqeqjp1 x2hbi6w x13fuv20 xu3j5b3 x1q0q8m5 x26u7qi x972fbf xcfux6l x1qhh985 xm0m39n x9f619 x1ypdohk xdl72j9 x2lah0s xe8uvvx xdj266r x11i5rnm xat24cr x1mh8g0r x2lwn1j xeuugli xexx8yu x4uap5 x18d9i69 xkhd6sd x1n2onr6 x16tdsg8 x1hl2dhg xggy1nq x1ja2u2z x1t137rt x1q0g3np x87ps6o x1lku1pv x1a2a7pz x1lq5wgf xgqcy7u x30kzoy x9jhf4c x1lliihq\" href=\"https://www.facebook.com/profile.php?id=503681912\" role=\"link\" tabindex=\"0\"><div class=\"x6s0dn4 x1q0q8m5 x1qhh985 xu3j5b3 xcfux6l x26u7qi xm0m39n x13fuv20 x972fbf x9f619 x78zum5 x1q0g3np x1iyjqo2 xs83m0k x1qughib xat24cr x11i5rnm x1mh8g0r xdj266r xeuugli x18d9i69 x1sxyh0 xurb0ha xexx8yu x1n2onr6 x1ja2u2z x1gg8mnh\"><div class=\"x78zum5 xdt5ytf xq8finb x1xmf6yo x1e56ztr x1n2onr6 xqcrz7y\"><div class=\"x1rg5ohu x1n2onr6 x3ajldb x1ja2u2z\"><svg aria-hidden=\"true\" class=\"x3ajldb\" data-visualcompletion=\"ignore-dynamic\" role=\"none\" style=\"height: 36px; width: 36px;\"><mask id=\"jsc_c_99\"><circle cx=\"18\" cy=\"18\" fill=\"white\" r=\"18\"></circle></mask><g mask=\"url(#jsc_c_99)\"><image x=\"0\" y=\"0\" height=\"100%\" preserveAspectRatio=\"xMidYMid slice\" width=\"100%\" xlink:href=\"https://scontent.flis12-1.fna.fbcdn.net/v/t1.6435-1/91085373_10158236392976913_6208256775464943616_n.jpg?stp=cp0_dst-jpg_p40x40&amp;_nc_cat=104&amp;ccb=1-7&amp;_nc_sid=7206a8&amp;_nc_ohc=OujOfcjwce8AX8sQ8z8&amp;_nc_ht=scontent.flis12-1.fna&amp;oh=00_AfB9A3IhMAfuxGMZH4a1u5I0pimb6nk0-2rxtjatXzllXg&amp;oe=63A84E77\" style=\"height: 36px; width: 36px;\"></image><circle class=\"x1pwv2dq xvlca1e xbh8q5q\" cx=\"18\" cy=\"18\" r=\"18\"></circle></g></svg></div></div><div class=\"x6s0dn4 xkh2ocl x1q0q8m5 x1qhh985 xu3j5b3 xcfux6l x26u7qi xm0m39n x13fuv20 x972fbf x9f619 x78zum5 x1q0g3np x1iyjqo2 xs83m0k x1qughib xat24cr x11i5rnm x1mh8g0r xdj266r x2lwn1j xeuugli x18d9i69 x4uap5 xkhd6sd xexx8yu x1n2onr6 x1ja2u2z\"><div class=\"x1q0q8m5 x1qhh985 xu3j5b3 xcfux6l x26u7qi xm0m39n x13fuv20 x972fbf x9f619 x78zum5 x1r8uery x1iyjqo2 xs83m0k x1qughib x11i5rnm x1mh8g0r x2lwn1j xeuugli x4uap5 xkhd6sd x1n2onr6 x1ja2u2z x1qjc9v5 xdt5ytf xat24cr xdj266r xz9dl7a xsag5q8\"><div class=\"\"><div class=\"x78zum5 xdt5ytf xz62fqu x16ldp7u\"><div class=\"xu06os2 x1ok221b\"><span class=\"x193iq5w xeuugli x13faqbe x1vvkbs x1xmvt09 x1lliihq x1s928wv xhkezso x1gmr53x x1cpjm7i x1fgarty x1943h6x xudqn12 x3x7a5m x6prxxf xvq8zen xo1l8bm xzsf02u x1yc453h\" dir=\"auto\"><span class=\"xt0psk2\"><span>Lorenzo Franceschi Bicchierai</span></span></span></div></div></div></div><div class=\"x16n37ib x1n2onr6 x1e56ztr x1xmf6yo xamitd3\"><div class=\"x6s0dn4 x78zum5 x1q0g3np\"><div class=\"\"><div aria-label=\"Invite\" class=\"x1i10hfl xjbqb8w x6umtig x1b1mbwd xaqea5y xav7gou x1ypdohk xe8uvvx xdj266r x11i5rnm xat24cr x1mh8g0r xexx8yu x4uap5 x18d9i69 xkhd6sd x16tdsg8 x1hl2dhg xggy1nq x1o1ewxj x3x9cwd x1e5q0jg x13rtm0m x87ps6o x1lku1pv x1a2a7pz x9f619 x3nfvp2 xdt5ytf xl56j7k x1n2onr6 xh8yej3\" role=\"button\" tabindex=\"0\"><div class=\"x1n2onr6 x1ja2u2z x78zum5 x2lah0s xl56j7k x6s0dn4 xozqiw3 x1q0g3np xi112ho x17zwfj4 x585lrc x1403ito x972fbf xcfux6l x1qhh985 xm0m39n x9f619 xn6708d x1ye3gou x1qhmfi1 x1r1pt67\"><div class=\"x6s0dn4 x78zum5 xl56j7k x1608yet xljgi0e x1e0frkt\"><div class=\"x9f619 x1n2onr6 x1ja2u2z x193iq5w xeuugli x6s0dn4 x78zum5 x2lah0s x1fbi1t2 xl8fo4v\"><span class=\"x193iq5w xeuugli x13faqbe x1vvkbs x1xmvt09 x1lliihq x1s928wv xhkezso x1gmr53x x1cpjm7i x1fgarty x1943h6x xudqn12 x3x7a5m x6prxxf xvq8zen x1s688f x1dem4cn\" dir=\"auto\"><span class=\"x1lliihq x6ikm8r x10wlt62 x1n2onr6 xlyipyv xuxw1ft\">Invite</span></span></div></div><div class=\"x1o1ewxj x3x9cwd x1e5q0jg x13rtm0m x1ey2m1c xds687c xg01cxk x47corl x10l6tqk x17qophe x13vifvy x1ebt8du x19991ni x1dhq9h\" data-visualcompletion=\"ignore\"></div></div></div></div></div></div></div></div><div class=\"x1o1ewxj x3x9cwd x1e5q0jg x13rtm0m x1ey2m1c xds687c xg01cxk x47corl x10l6tqk x17qophe x13vifvy x1ebt8du x19991ni x1dhq9h x1wpzbip\" data-visualcompletion=\"ignore\"></div></a></div><div data-visualcompletion=\"ignore-dynamic\" role=\"listitem\" style=\"padding-left: 8px; padding-right: 8px;\"><a class=\"x1i10hfl x1qjc9v5 xjbqb8w xjqpnuy xa49m3k xqeqjp1 x2hbi6w x13fuv20 xu3j5b3 x1q0q8m5 x26u7qi x972fbf xcfux6l x1qhh985 xm0m39n x9f619 x1ypdohk xdl72j9 x2lah0s xe8uvvx xdj266r x11i5rnm xat24cr x1mh8g0r x2lwn1j xeuugli xexx8yu x4uap5 x18d9i69 xkhd6sd x1n2onr6 x16tdsg8 x1hl2dhg xggy1nq x1ja2u2z x1t137rt x1q0g3np x87ps6o x1lku1pv x1a2a7pz x1lq5wgf xgqcy7u x30kzoy x9jhf4c x1lliihq\" href=\"https://www.facebook.com/dragana.kaurin\" role=\"link\" tabindex=\"0\"><div class=\"x6s0dn4 x1q0q8m5 x1qhh985 xu3j5b3 xcfux6l x26u7qi xm0m39n x13fuv20 x972fbf x9f619 x78zum5 x1q0g3np x1iyjqo2 xs83m0k x1qughib xat24cr x11i5rnm x1mh8g0r xdj266r xeuugli x18d9i69 x1sxyh0 xurb0ha xexx8yu x1n2onr6 x1ja2u2z x1gg8mnh\"><div class=\"x78zum5 xdt5ytf xq8finb x1xmf6yo x1e56ztr x1n2onr6 xqcrz7y\"><div class=\"x1rg5ohu x1n2onr6 x3ajldb x1ja2u2z\"><svg aria-hidden=\"true\" class=\"x3ajldb\" data-visualcompletion=\"ignore-dynamic\" role=\"none\" style=\"height: 36px; width: 36px;\"><mask id=\"jsc_c_9a\"><circle cx=\"18\" cy=\"18\" fill=\"white\" r=\"18\"></circle></mask><g mask=\"url(#jsc_c_9a)\"><image x=\"0\" y=\"0\" height=\"100%\" preserveAspectRatio=\"xMidYMid slice\" width=\"100%\" xlink:href=\"https://scontent.flis12-2.fna.fbcdn.net/v/t1.6435-1/33406932_10112042171643415_263831594656071680_n.jpg?stp=cp0_dst-jpg_p40x40&amp;_nc_cat=103&amp;ccb=1-7&amp;_nc_sid=7206a8&amp;_nc_ohc=FHwFMerDB3wAX_x6CDT&amp;_nc_ht=scontent.flis12-2.fna&amp;oh=00_AfC5QRQHCBzlVBzbeopxMrXeeMhzpAFMMjEkb2vAglXUFg&amp;oe=63A85CE8\" style=\"height: 36px; width: 36px;\"></image><circle class=\"x1pwv2dq xvlca1e xbh8q5q\" cx=\"18\" cy=\"18\" r=\"18\"></circle></g></svg></div></div><div class=\"x6s0dn4 xkh2ocl x1q0q8m5 x1qhh985 xu3j5b3 xcfux6l x26u7qi xm0m39n x13fuv20 x972fbf x9f619 x78zum5 x1q0g3np x1iyjqo2 xs83m0k x1qughib xat24cr x11i5rnm x1mh8g0r xdj266r x2lwn1j xeuugli x18d9i69 x4uap5 xkhd6sd xexx8yu x1n2onr6 x1ja2u2z\"><div class=\"x1q0q8m5 x1qhh985 xu3j5b3 xcfux6l x26u7qi xm0m39n x13fuv20 x972fbf x9f619 x78zum5 x1r8uery x1iyjqo2 xs83m0k x1qughib x11i5rnm x1mh8g0r x2lwn1j xeuugli x4uap5 xkhd6sd x1n2onr6 x1ja2u2z x1qjc9v5 xdt5ytf xat24cr xdj266r xz9dl7a xsag5q8\"><div class=\"\"><div class=\"x78zum5 xdt5ytf xz62fqu x16ldp7u\"><div class=\"xu06os2 x1ok221b\"><span class=\"x193iq5w xeuugli x13faqbe x1vvkbs x1xmvt09 x1lliihq x1s928wv xhkezso x1gmr53x x1cpjm7i x1fgarty x1943h6x xudqn12 x3x7a5m x6prxxf xvq8zen xo1l8bm xzsf02u x1yc453h\" dir=\"auto\"><span class=\"xt0psk2\"><span>Dragana Kaurin</span></span></span></div></div></div></div><div class=\"x16n37ib x1n2onr6 x1e56ztr x1xmf6yo xamitd3\"><div class=\"x6s0dn4 x78zum5 x1q0g3np\"><div class=\"\"><div aria-label=\"Invite\" class=\"x1i10hfl xjbqb8w x6umtig x1b1mbwd xaqea5y xav7gou x1ypdohk xe8uvvx xdj266r x11i5rnm xat24cr x1mh8g0r xexx8yu x4uap5 x18d9i69 xkhd6sd x16tdsg8 x1hl2dhg xggy1nq x1o1ewxj x3x9cwd x1e5q0jg x13rtm0m x87ps6o x1lku1pv x1a2a7pz x9f619 x3nfvp2 xdt5ytf xl56j7k x1n2onr6 xh8yej3\" role=\"button\" tabindex=\"0\"><div class=\"x1n2onr6 x1ja2u2z x78zum5 x2lah0s xl56j7k x6s0dn4 xozqiw3 x1q0g3np xi112ho x17zwfj4 x585lrc x1403ito x972fbf xcfux6l x1qhh985 xm0m39n x9f619 xn6708d x1ye3gou x1qhmfi1 x1r1pt67\"><div class=\"x6s0dn4 x78zum5 xl56j7k x1608yet xljgi0e x1e0frkt\"><div class=\"x9f619 x1n2onr6 x1ja2u2z x193iq5w xeuugli x6s0dn4 x78zum5 x2lah0s x1fbi1t2 xl8fo4v\"><span class=\"x193iq5w xeuugli x13faqbe x1vvkbs x1xmvt09 x1lliihq x1s928wv xhkezso x1gmr53x x1cpjm7i x1fgarty x1943h6x xudqn12 x3x7a5m x6prxxf xvq8zen x1s688f x1dem4cn\" dir=\"auto\"><span class=\"x1lliihq x6ikm8r x10wlt62 x1n2onr6 xlyipyv xuxw1ft\">Invite</span></span></div></div><div class=\"x1o1ewxj x3x9cwd x1e5q0jg x13rtm0m x1ey2m1c xds687c xg01cxk x47corl x10l6tqk x17qophe x13vifvy x1ebt8du x19991ni x1dhq9h\" data-visualcompletion=\"ignore\"></div></div></div></div></div></div></div></div><div class=\"x1o1ewxj x3x9cwd x1e5q0jg x13rtm0m x1ey2m1c xds687c xg01cxk x47corl x10l6tqk x17qophe x13vifvy x1ebt8du x19991ni x1dhq9h\" data-visualcompletion=\"ignore\"></div></a></div></div></div></div></div></div></div><div class=\"x1yztbdb\"><div class=\"x78zum5 x1n2onr6 xh8yej3\"><div class=\"x9f619 x1n2onr6 x1ja2u2z x2bj2ny x1qpq9i9 xdney7k xu5ydu1 xt3gfkd xh8yej3 x6ikm8r x10wlt62 xquyuld\" style=\"border-radius: max(0px, min(8px, ((100vw - 4px) - 100%) * 9999)) / 8px;\"><div class=\"x1l90r2v xyamay9\"><div class=\"x13fuv20 x26u7qi xu3j5b3 x1q0q8m5 x972fbf xm0m39n xcfux6l x1qhh985 x9f619 x78zum5 x1iyjqo2 xs83m0k xdj266r x11i5rnm xat24cr x1mh8g0r x2lwn1j xeuugli x1n2onr6 x1ja2u2z xuk3077 x1q0g3np x1qughib x1iorvi4 x1pi30zi x1l90r2v x1swvt13\"><div class=\"x78zum5 xdt5ytf x4cne27 xifccgj\"><div class=\"xzueoph x1k70j0n\"><h2 class=\"x1heor9g x1qlqyl8 x1pd3egz x1a2a7pz x193iq5w xeuugli\" dir=\"auto\"><span class=\"x193iq5w xeuugli x13faqbe x1vvkbs x1xmvt09 x1lliihq x1s928wv xhkezso x1gmr53x x1cpjm7i x1fgarty x1943h6x xtoi2st x3x7a5m x1603h9y x1u7k74 x1xlr1w8 xzsf02u x1yc453h\" dir=\"auto\" style=\"\">Share to Groups</span></h2></div></div><div class=\"x1i10hfl xjbqb8w x6umtig x1b1mbwd xaqea5y xav7gou x9f619 x1ypdohk xt0psk2 xe8uvvx xdj266r x11i5rnm xat24cr x1mh8g0r xexx8yu x4uap5 x18d9i69 xkhd6sd x16tdsg8 x1hl2dhg xggy1nq x1a2a7pz x1heor9g xt0b8zv\" role=\"button\" tabindex=\"0\"><span class=\"x193iq5w xeuugli x13faqbe x1vvkbs x1xmvt09 x1lliihq x1s928wv xhkezso x1gmr53x x1cpjm7i x1fgarty x1943h6x xudqn12 x3x7a5m x6prxxf xvq8zen xo1l8bm x1fey0fg\" dir=\"auto\">See all</span></div></div><div style=\"box-sizing: border-box; padding-right: 8px; width: 100%;\"><a class=\"x1i10hfl x1qjc9v5 xjbqb8w xjqpnuy xa49m3k xqeqjp1 x2hbi6w x13fuv20 xu3j5b3 x1q0q8m5 x26u7qi x972fbf xcfux6l x1qhh985 xm0m39n x9f619 x1ypdohk xdl72j9 x2lah0s xe8uvvx x2lwn1j xeuugli x1n2onr6 x16tdsg8 x1hl2dhg xggy1nq x1ja2u2z x1t137rt x87ps6o x1lku1pv x1rg5ohu x1a2a7pz x1lq5wgf xgqcy7u x30kzoy x9jhf4c xdt5ytf xdj266r xw3qccf xat24cr xsgj6o6 x1y1aw1k x4uap5 xwib8y2 xkhd6sd xh8yej3\" href=\"https://www.facebook.com/groups/262913937615130/\" role=\"link\" tabindex=\"0\"><div class=\"x9f619 x1n2onr6 x1ja2u2z x78zum5 x2lah0s x1qughib x1qjc9v5 xozqiw3 x1q0g3np xn6708d x1ye3gou xykv574 xbmpl8g x4cne27 xifccgj\"><div class=\"x9f619 x1n2onr6 x1ja2u2z x78zum5 xdt5ytf x2lah0s x193iq5w xeuugli xsyo7zv x16hj40l x10b6aqq x1yrsyyn\"><div class=\"x9f619 x1n2onr6 x1ja2u2z x1jx94hy x1lliihq x6ikm8r x10wlt62 x1lq5wgf xgqcy7u x30kzoy x9jhf4c xc9qbxq x14qfxbe\"><div class=\"x9f619 x1n2onr6 x1ja2u2z\"><img alt=\"\" class=\"x1lliihq x193iq5w x1us19tq xl1xv1r\" referrerpolicy=\"origin-when-cross-origin\" src=\"https://scontent.flis12-1.fna.fbcdn.net/v/t39.30808-6/265023072_4671694046221353_4034557210073097047_n.jpg?stp=c0.8.50.50a_cp0_dst-jpg_p50x50&amp;_nc_cat=100&amp;ccb=1-7&amp;_nc_sid=70495d&amp;_nc_ohc=51A2Awecsc0AX-RSwZh&amp;_nc_ht=scontent.flis12-1.fna&amp;oh=00_AfAWz3USk9Ub4_c7jhf_98337i9VqLbUSKiq0XHaiMOoBQ&amp;oe=63862391\"><div class=\"x9f619 x1ja2u2z x1ey2m1c xlg9a9y xds687c x10l6tqk x17qophe x13vifvy x1lq5wgf xgqcy7u x30kzoy x9jhf4c\"></div></div></div></div><div class=\"x9f619 x1n2onr6 x1ja2u2z x78zum5 xdt5ytf x193iq5w xeuugli x1r8uery x1iyjqo2 xs83m0k xsyo7zv x16hj40l x10b6aqq x1yrsyyn\"><div class=\"x78zum5 xdt5ytf xz62fqu x16ldp7u\"><div class=\"xu06os2 x1ok221b\"><span class=\"x193iq5w xeuugli x13faqbe x1vvkbs x1xmvt09 x1lliihq x1s928wv xhkezso x1gmr53x x1cpjm7i x1fgarty x1943h6x xudqn12 x3x7a5m x6prxxf xvq8zen x1s688f xzsf02u x1yc453h\" dir=\"auto\"><span class=\"x1lliihq x6ikm8r x10wlt62 x1n2onr6 xlyipyv xuxw1ft\">Baba Yaga's Hut</span></span></div><div class=\"xu06os2 x1ok221b\"><span class=\"x193iq5w xeuugli x13faqbe x1vvkbs x1xmvt09 x1lliihq x1s928wv xhkezso x1gmr53x x1cpjm7i x1fgarty x1943h6x x4zkp8e x676frb x1nxh6w3 x1sibtaa xo1l8bm xzsf02u x1yc453h\" dir=\"auto\">Private group<span><span class=\"xzpqnlu xjm9jq1 x6ikm8r x10wlt62 x10l6tqk x1i1rx1s\">&nbsp;</span><span aria-hidden=\"true\"> · </span></span>320 members</span></div></div></div><div class=\"x9f619 x1n2onr6 x1ja2u2z x78zum5 xdt5ytf x2lah0s x193iq5w xeuugli xsyo7zv x16hj40l x10b6aqq x1yrsyyn\"><div aria-label=\"Share\" class=\"x1i10hfl xjbqb8w x6umtig x1b1mbwd xaqea5y xav7gou x1ypdohk xe8uvvx xdj266r x11i5rnm xat24cr x1mh8g0r xexx8yu x4uap5 x18d9i69 xkhd6sd x16tdsg8 x1hl2dhg xggy1nq x1o1ewxj x3x9cwd x1e5q0jg x13rtm0m x87ps6o x1lku1pv x1a2a7pz x9f619 x3nfvp2 xdt5ytf xl56j7k x1n2onr6 xh8yej3\" role=\"button\" tabindex=\"0\"><div class=\"x1n2onr6 x1ja2u2z x78zum5 x2lah0s xl56j7k x6s0dn4 xozqiw3 x1q0g3np xi112ho x17zwfj4 x585lrc x1403ito x972fbf xcfux6l x1qhh985 xm0m39n x9f619 xn6708d x1ye3gou x1qhmfi1 x1r1pt67\"><div class=\"x6s0dn4 x78zum5 xl56j7k x1608yet xljgi0e x1e0frkt\" style=\"border: 1px solid red;\"><div class=\"x9f619 x1n2onr6 x1ja2u2z x193iq5w xeuugli x6s0dn4 x78zum5 x2lah0s x1fbi1t2 xl8fo4v\"><i data-visualcompletion=\"css-img\" class=\"x1b0d499 xep6ejk\" style=\"background-image: url(&quot;https://static.xx.fbcdn.net/rsrc.php/v3/yz/r/t4SObw3ynhJ.png&quot;); background-position: -17px -320px; background-size: auto; width: 16px; height: 16px; background-repeat: no-repeat; display: inline-block;\"></i></div><div class=\"x9f619 x1n2onr6 x1ja2u2z x193iq5w xeuugli x6s0dn4 x78zum5 x2lah0s x1fbi1t2 xl8fo4v\"><span class=\"x193iq5w xeuugli x13faqbe x1vvkbs x1xmvt09 x1lliihq x1s928wv xhkezso x1gmr53x x1cpjm7i x1fgarty x1943h6x xudqn12 x3x7a5m x6prxxf xvq8zen x1s688f x1dem4cn\" dir=\"auto\"><span class=\"x1lliihq x6ikm8r x10wlt62 x1n2onr6 xlyipyv xuxw1ft\">Share</span></span></div></div><div class=\"x1o1ewxj x3x9cwd x1e5q0jg x13rtm0m x1ey2m1c xds687c xg01cxk x47corl x10l6tqk x17qophe x13vifvy x1ebt8du x19991ni x1dhq9h\" data-visualcompletion=\"ignore\"></div></div></div></div></div><div class=\"x1o1ewxj x3x9cwd x1e5q0jg x13rtm0m x1ey2m1c xds687c xg01cxk x47corl x10l6tqk x17qophe x13vifvy x1ebt8du x19991ni x1dhq9h\" data-visualcompletion=\"ignore\"></div></a></div><div style=\"box-sizing: border-box; padding-right: 8px; width: 100%;\"><a class=\"x1i10hfl x1qjc9v5 xjbqb8w xjqpnuy xa49m3k xqeqjp1 x2hbi6w x13fuv20 xu3j5b3 x1q0q8m5 x26u7qi x972fbf xcfux6l x1qhh985 xm0m39n x9f619 x1ypdohk xdl72j9 x2lah0s xe8uvvx x2lwn1j xeuugli x1n2onr6 x16tdsg8 x1hl2dhg xggy1nq x1ja2u2z x1t137rt x87ps6o x1lku1pv x1rg5ohu x1a2a7pz x1lq5wgf xgqcy7u x30kzoy x9jhf4c xdt5ytf xdj266r xw3qccf xat24cr xsgj6o6 x1y1aw1k x4uap5 xwib8y2 xkhd6sd xh8yej3\" href=\"https://www.facebook.com/groups/2490439351086164/\" role=\"link\" tabindex=\"0\"><div class=\"x9f619 x1n2onr6 x1ja2u2z x78zum5 x2lah0s x1qughib x1qjc9v5 xozqiw3 x1q0g3np xn6708d x1ye3gou xykv574 xbmpl8g x4cne27 xifccgj\"><div class=\"x9f619 x1n2onr6 x1ja2u2z x78zum5 xdt5ytf x2lah0s x193iq5w xeuugli xsyo7zv x16hj40l x10b6aqq x1yrsyyn\"><div class=\"x9f619 x1n2onr6 x1ja2u2z x1jx94hy x1lliihq x6ikm8r x10wlt62 x1lq5wgf xgqcy7u x30kzoy x9jhf4c xc9qbxq x14qfxbe\"><div class=\"x9f619 x1n2onr6 x1ja2u2z\"><img alt=\"\" class=\"x1lliihq x193iq5w x1us19tq xl1xv1r\" referrerpolicy=\"origin-when-cross-origin\" src=\"https://scontent.flis12-1.fna.fbcdn.net/v/t39.30808-6/279396711_103983988983222_6899566994730951330_n.jpg?stp=c26.0.50.50a_cp0_dst-jpg_p50x50&amp;_nc_cat=105&amp;ccb=1-7&amp;_nc_sid=70495d&amp;_nc_ohc=dxD7dEntZAgAX8tiWV9&amp;_nc_ht=scontent.flis12-1.fna&amp;oh=00_AfA0gFXrXMBXIj8ZA_U-h7uY7-gIu6PNc_JpX85jM4nvKg&amp;oe=63853EEA\"><div class=\"x9f619 x1ja2u2z x1ey2m1c xlg9a9y xds687c x10l6tqk x17qophe x13vifvy x1lq5wgf xgqcy7u x30kzoy x9jhf4c\"></div></div></div></div><div class=\"x9f619 x1n2onr6 x1ja2u2z x78zum5 xdt5ytf x193iq5w xeuugli x1r8uery x1iyjqo2 xs83m0k xsyo7zv x16hj40l x10b6aqq x1yrsyyn\"><div class=\"x78zum5 xdt5ytf xz62fqu x16ldp7u\"><div class=\"xu06os2 x1ok221b\"><span class=\"x193iq5w xeuugli x13faqbe x1vvkbs x1xmvt09 x1lliihq x1s928wv xhkezso x1gmr53x x1cpjm7i x1fgarty x1943h6x xudqn12 x3x7a5m x6prxxf xvq8zen x1s688f xzsf02u x1yc453h\" dir=\"auto\"><span class=\"x1lliihq x6ikm8r x10wlt62 x1n2onr6 xlyipyv xuxw1ft\">AngelCyberPhotographer.de</span></span></div><div class=\"xu06os2 x1ok221b\"><span class=\"x193iq5w xeuugli x13faqbe x1vvkbs x1xmvt09 x1lliihq x1s928wv xhkezso x1gmr53x x1cpjm7i x1fgarty x1943h6x x4zkp8e x676frb x1nxh6w3 x1sibtaa xo1l8bm xzsf02u x1yc453h\" dir=\"auto\">Public group<span><span class=\"xzpqnlu xjm9jq1 x6ikm8r x10wlt62 x10l6tqk x1i1rx1s\">&nbsp;</span><span aria-hidden=\"true\"> · </span></span>14 members</span></div></div></div><div class=\"x9f619 x1n2onr6 x1ja2u2z x78zum5 xdt5ytf x2lah0s x193iq5w xeuugli xsyo7zv x16hj40l x10b6aqq x1yrsyyn\"><div aria-label=\"Share\" class=\"x1i10hfl xjbqb8w x6umtig x1b1mbwd xaqea5y xav7gou x1ypdohk xe8uvvx xdj266r x11i5rnm xat24cr x1mh8g0r xexx8yu x4uap5 x18d9i69 xkhd6sd x16tdsg8 x1hl2dhg xggy1nq x1o1ewxj x3x9cwd x1e5q0jg x13rtm0m x87ps6o x1lku1pv x1a2a7pz x9f619 x3nfvp2 xdt5ytf xl56j7k x1n2onr6 xh8yej3\" role=\"button\" tabindex=\"0\"><div class=\"x1n2onr6 x1ja2u2z x78zum5 x2lah0s xl56j7k x6s0dn4 xozqiw3 x1q0g3np xi112ho x17zwfj4 x585lrc x1403ito x972fbf xcfux6l x1qhh985 xm0m39n x9f619 xn6708d x1ye3gou x1qhmfi1 x1r1pt67\"><div class=\"x6s0dn4 x78zum5 xl56j7k x1608yet xljgi0e x1e0frkt\" style=\"border: 1px solid red;\"><div class=\"x9f619 x1n2onr6 x1ja2u2z x193iq5w xeuugli x6s0dn4 x78zum5 x2lah0s x1fbi1t2 xl8fo4v\"><i data-visualcompletion=\"css-img\" class=\"x1b0d499 xep6ejk\" style=\"background-image: url(&quot;https://static.xx.fbcdn.net/rsrc.php/v3/yz/r/t4SObw3ynhJ.png&quot;); background-position: -17px -320px; background-size: auto; width: 16px; height: 16px; background-repeat: no-repeat; display: inline-block;\"></i></div><div class=\"x9f619 x1n2onr6 x1ja2u2z x193iq5w xeuugli x6s0dn4 x78zum5 x2lah0s x1fbi1t2 xl8fo4v\"><span class=\"x193iq5w xeuugli x13faqbe x1vvkbs x1xmvt09 x1lliihq x1s928wv xhkezso x1gmr53x x1cpjm7i x1fgarty x1943h6x xudqn12 x3x7a5m x6prxxf xvq8zen x1s688f x1dem4cn\" dir=\"auto\"><span class=\"x1lliihq x6ikm8r x10wlt62 x1n2onr6 xlyipyv xuxw1ft\">Share</span></span></div></div><div class=\"x1o1ewxj x3x9cwd x1e5q0jg x13rtm0m x1ey2m1c xds687c xg01cxk x47corl x10l6tqk x17qophe x13vifvy x1ebt8du x19991ni x1dhq9h\" data-visualcompletion=\"ignore\"></div></div></div></div></div><div class=\"x1o1ewxj x3x9cwd x1e5q0jg x13rtm0m x1ey2m1c xds687c xg01cxk x47corl x10l6tqk x17qophe x13vifvy x1ebt8du x19991ni x1dhq9h\" data-visualcompletion=\"ignore\"></div></a></div><div style=\"box-sizing: border-box; padding-right: 8px; width: 100%;\"><a class=\"x1i10hfl x1qjc9v5 xjbqb8w xjqpnuy xa49m3k xqeqjp1 x2hbi6w x13fuv20 xu3j5b3 x1q0q8m5 x26u7qi x972fbf xcfux6l x1qhh985 xm0m39n x9f619 x1ypdohk xdl72j9 x2lah0s xe8uvvx x2lwn1j xeuugli x1n2onr6 x16tdsg8 x1hl2dhg xggy1nq x1ja2u2z x1t137rt x87ps6o x1lku1pv x1rg5ohu x1a2a7pz x1lq5wgf xgqcy7u x30kzoy x9jhf4c xdt5ytf xdj266r xw3qccf xat24cr xsgj6o6 x1y1aw1k x4uap5 xwib8y2 xkhd6sd xh8yej3\" href=\"https://www.facebook.com/groups/1685672461747101/\" role=\"link\" tabindex=\"0\"><div class=\"x9f619 x1n2onr6 x1ja2u2z x78zum5 x2lah0s x1qughib x1qjc9v5 xozqiw3 x1q0g3np xn6708d x1ye3gou xykv574 xbmpl8g x4cne27 xifccgj\"><div class=\"x9f619 x1n2onr6 x1ja2u2z x78zum5 xdt5ytf x2lah0s x193iq5w xeuugli xsyo7zv x16hj40l x10b6aqq x1yrsyyn\"><div class=\"x9f619 x1n2onr6 x1ja2u2z x1jx94hy x1lliihq x6ikm8r x10wlt62 x1lq5wgf xgqcy7u x30kzoy x9jhf4c xc9qbxq x14qfxbe\"><div class=\"x9f619 x1n2onr6 x1ja2u2z\"><img alt=\"\" class=\"x1lliihq x193iq5w x1us19tq xl1xv1r\" referrerpolicy=\"origin-when-cross-origin\" src=\"https://scontent.flis12-1.fna.fbcdn.net/v/t31.18172-8/14918758_10154686098078420_3374440296280353995_o.jpg?stp=c13.0.50.50a_cp0_dst-jpg_p50x50&amp;_nc_cat=102&amp;ccb=1-7&amp;_nc_sid=70495d&amp;_nc_ohc=wv_Nt09g5U8AX9v5dlv&amp;_nc_ht=scontent.flis12-1.fna&amp;oh=00_AfByAF871mtuxNROb-rkUeBkhElSB_vdnnE4yzdTXs0gYw&amp;oe=63A88535\"><div class=\"x9f619 x1ja2u2z x1ey2m1c xlg9a9y xds687c x10l6tqk x17qophe x13vifvy x1lq5wgf xgqcy7u x30kzoy x9jhf4c\"></div></div></div></div><div class=\"x9f619 x1n2onr6 x1ja2u2z x78zum5 xdt5ytf x193iq5w xeuugli x1r8uery x1iyjqo2 xs83m0k xsyo7zv x16hj40l x10b6aqq x1yrsyyn\"><div class=\"x78zum5 xdt5ytf xz62fqu x16ldp7u\"><div class=\"xu06os2 x1ok221b\"><span class=\"x193iq5w xeuugli x13faqbe x1vvkbs x1xmvt09 x1lliihq x1s928wv xhkezso x1gmr53x x1cpjm7i x1fgarty x1943h6x xudqn12 x3x7a5m x6prxxf xvq8zen x1s688f xzsf02u x1yc453h\" dir=\"auto\"><span class=\"x1lliihq x6ikm8r x10wlt62 x1n2onr6 xlyipyv xuxw1ft\">Vaccinations 101</span></span></div><div class=\"xu06os2 x1ok221b\"><span class=\"x193iq5w xeuugli x13faqbe x1vvkbs x1xmvt09 x1lliihq x1s928wv xhkezso x1gmr53x x1cpjm7i x1fgarty x1943h6x x4zkp8e x676frb x1nxh6w3 x1sibtaa xo1l8bm xzsf02u x1yc453h\" dir=\"auto\">Public group<span><span class=\"xzpqnlu xjm9jq1 x6ikm8r x10wlt62 x10l6tqk x1i1rx1s\">&nbsp;</span><span aria-hidden=\"true\"> · </span></span>3K members</span></div></div></div><div class=\"x9f619 x1n2onr6 x1ja2u2z x78zum5 xdt5ytf x2lah0s x193iq5w xeuugli xsyo7zv x16hj40l x10b6aqq x1yrsyyn\"><div aria-label=\"Share\" class=\"x1i10hfl xjbqb8w x6umtig x1b1mbwd xaqea5y xav7gou x1ypdohk xe8uvvx xdj266r x11i5rnm xat24cr x1mh8g0r xexx8yu x4uap5 x18d9i69 xkhd6sd x16tdsg8 x1hl2dhg xggy1nq x1o1ewxj x3x9cwd x1e5q0jg x13rtm0m x87ps6o x1lku1pv x1a2a7pz x9f619 x3nfvp2 xdt5ytf xl56j7k x1n2onr6 xh8yej3\" role=\"button\" tabindex=\"0\"><div class=\"x1n2onr6 x1ja2u2z x78zum5 x2lah0s xl56j7k x6s0dn4 xozqiw3 x1q0g3np xi112ho x17zwfj4 x585lrc x1403ito x972fbf xcfux6l x1qhh985 xm0m39n x9f619 xn6708d x1ye3gou x1qhmfi1 x1r1pt67\"><div class=\"x6s0dn4 x78zum5 xl56j7k x1608yet xljgi0e x1e0frkt\" style=\"border: 1px solid red;\"><div class=\"x9f619 x1n2onr6 x1ja2u2z x193iq5w xeuugli x6s0dn4 x78zum5 x2lah0s x1fbi1t2 xl8fo4v\"><i data-visualcompletion=\"css-img\" class=\"x1b0d499 xep6ejk\" style=\"background-image: url(&quot;https://static.xx.fbcdn.net/rsrc.php/v3/yz/r/t4SObw3ynhJ.png&quot;); background-position: -17px -320px; background-size: auto; width: 16px; height: 16px; background-repeat: no-repeat; display: inline-block;\"></i></div><div class=\"x9f619 x1n2onr6 x1ja2u2z x193iq5w xeuugli x6s0dn4 x78zum5 x2lah0s x1fbi1t2 xl8fo4v\"><span class=\"x193iq5w xeuugli x13faqbe x1vvkbs x1xmvt09 x1lliihq x1s928wv xhkezso x1gmr53x x1cpjm7i x1fgarty x1943h6x xudqn12 x3x7a5m x6prxxf xvq8zen x1s688f x1dem4cn\" dir=\"auto\"><span class=\"x1lliihq x6ikm8r x10wlt62 x1n2onr6 xlyipyv xuxw1ft\">Share</span></span></div></div><div class=\"x1o1ewxj x3x9cwd x1e5q0jg x13rtm0m x1ey2m1c xds687c xg01cxk x47corl x10l6tqk x17qophe x13vifvy x1ebt8du x19991ni x1dhq9h\" data-visualcompletion=\"ignore\"></div></div></div></div></div><div class=\"x1o1ewxj x3x9cwd x1e5q0jg x13rtm0m x1ey2m1c xds687c xg01cxk x47corl x10l6tqk x17qophe x13vifvy x1ebt8du x19991ni x1dhq9h\" data-visualcompletion=\"ignore\"></div></a></div></div></div></div></div><footer aria-label=\"Facebook\" role=\"contentinfo\"><span class=\"x193iq5w xeuugli x13faqbe x1vvkbs x1xmvt09 x1lliihq x1s928wv xhkezso x1gmr53x x1cpjm7i x1fgarty x1943h6x x4zkp8e x676frb x1nxh6w3 x1sibtaa xo1l8bm xi81zsa\" dir=\"auto\"><ul class=\"xt0psk2\"><li class=\"xt0psk2\"><a class=\"x1i10hfl xjbqb8w x6umtig x1b1mbwd xaqea5y xav7gou x9f619 x1ypdohk xt0psk2 xe8uvvx xdj266r x11i5rnm xat24cr x1mh8g0r xexx8yu x4uap5 x18d9i69 xkhd6sd x16tdsg8 x1hl2dhg xggy1nq x1a2a7pz xt0b8zv xi81zsa xo1l8bm\" href=\"/privacy/explanation/\" role=\"link\" tabindex=\"0\">Privacy</a><span><span class=\"xzpqnlu xjm9jq1 x6ikm8r x10wlt62 x10l6tqk x1i1rx1s\">&nbsp;</span><span aria-hidden=\"true\"> · </span></span></li><li class=\"xt0psk2\"><a class=\"x1i10hfl xjbqb8w x6umtig x1b1mbwd xaqea5y xav7gou x9f619 x1ypdohk xt0psk2 xe8uvvx xdj266r x11i5rnm xat24cr x1mh8g0r xexx8yu x4uap5 x18d9i69 xkhd6sd x16tdsg8 x1hl2dhg xggy1nq x1a2a7pz xt0b8zv xi81zsa xo1l8bm\" href=\"/policies?ref=pf\" role=\"link\" tabindex=\"0\">Terms</a><span><span class=\"xzpqnlu xjm9jq1 x6ikm8r x10wlt62 x10l6tqk x1i1rx1s\">&nbsp;</span><span aria-hidden=\"true\"> · </span></span></li><li class=\"xt0psk2\"><a class=\"x1i10hfl xjbqb8w x6umtig x1b1mbwd xaqea5y xav7gou x9f619 x1ypdohk xt0psk2 xe8uvvx xdj266r x11i5rnm xat24cr x1mh8g0r xexx8yu x4uap5 x18d9i69 xkhd6sd x16tdsg8 x1hl2dhg xggy1nq x1a2a7pz xt0b8zv xi81zsa xo1l8bm\" href=\"/business/\" role=\"link\" tabindex=\"0\">Advertising</a><span><span class=\"xzpqnlu xjm9jq1 x6ikm8r x10wlt62 x10l6tqk x1i1rx1s\">&nbsp;</span><span aria-hidden=\"true\"> · </span></span></li><li class=\"xt0psk2\"><a class=\"x1i10hfl xjbqb8w x6umtig x1b1mbwd xaqea5y xav7gou x9f619 x1ypdohk xt0psk2 xe8uvvx xdj266r x11i5rnm xat24cr x1mh8g0r xexx8yu x4uap5 x18d9i69 xkhd6sd x16tdsg8 x1hl2dhg xggy1nq x1a2a7pz xt0b8zv xi81zsa xo1l8bm\" href=\"/help/568137493302217\" role=\"link\" tabindex=\"0\" style=\"border: 1px solid red;\">Ad Choices <span class=\"x1n2onr6 x1qiirwl\"><i data-visualcompletion=\"css-img\" class=\"x1b0d499 x1d69dk1\" style=\"background-image: url(&quot;https://static.xx.fbcdn.net/rsrc.php/v3/yI/r/PZYo-Qx6hO6.png&quot;); background-position: -149px -147px; background-size: auto; width: 12px; height: 12px; background-repeat: no-repeat; display: inline-block;\"></i></span></a><span><span class=\"xzpqnlu xjm9jq1 x6ikm8r x10wlt62 x10l6tqk x1i1rx1s\">&nbsp;</span><span aria-hidden=\"true\"> · </span></span></li><li class=\"xt0psk2\"><a class=\"x1i10hfl xjbqb8w x6umtig x1b1mbwd xaqea5y xav7gou x9f619 x1ypdohk xt0psk2 xe8uvvx xdj266r x11i5rnm xat24cr x1mh8g0r xexx8yu x4uap5 x18d9i69 xkhd6sd x16tdsg8 x1hl2dhg xggy1nq x1a2a7pz xt0b8zv xi81zsa xo1l8bm\" href=\"/policies/cookies/\" role=\"link\" tabindex=\"0\">Cookies</a><span><span class=\"xzpqnlu xjm9jq1 x6ikm8r x10wlt62 x10l6tqk x1i1rx1s\">&nbsp;</span><span aria-hidden=\"true\"> · </span></span></li><li class=\"xt0psk2\"><div aria-expanded=\"false\" aria-haspopup=\"menu\" class=\"x1i10hfl xjbqb8w x6umtig x1b1mbwd xaqea5y xav7gou x9f619 x1ypdohk xt0psk2 xe8uvvx xdj266r x11i5rnm xat24cr x1mh8g0r xexx8yu x4uap5 x18d9i69 xkhd6sd x16tdsg8 x1hl2dhg xggy1nq x1o1ewxj x3x9cwd x1e5q0jg x13rtm0m x1n2onr6 x87ps6o x1lku1pv x1a2a7pz\" role=\"button\" tabindex=\"0\">More</div><span><span class=\"xzpqnlu xjm9jq1 x6ikm8r x10wlt62 x10l6tqk x1i1rx1s\">&nbsp;</span><span aria-hidden=\"true\"> · </span></span></li></ul>Meta © 2022</span></footer></div></div></div></div></div></div></div></div></div>",
 "href": "https://www.facebook.com/events/654546319448922/?acontext=%7B%22event_action_history%22%3A[%7B%22mechanism%22%3A%22discovery_top_tab%22%2C%22surface%22%3A%22bookmark%22%7D]%2C%22ref_notif_type%22%3Anull%7D",
 "update": 25,
 "randomUUID": "y2blsp7rs4is1ajjyd17pk",
 "clientTime": "2022-11-25T17:18:33+00:00",
 "type": "liberated"
}